<svg width="207" height="49" viewBox="0 0 207 49" fill="none" xmlns="http://www.w3.org/2000/svg">
<g clip-path="url(#clip0)">
<path d="M46.9026 0H0.203857V46.4182H46.9026V0Z" fill="#009A8E"/>
<path d="M15.7641 30.9634H7.98401V38.6968H15.7641V30.9634Z" fill="white"/>
<path opacity="0.15" d="M46.8966 30.9634H39.1165V38.6968H46.8966V30.9634Z" fill="white"/>
<path opacity="0.15" d="M7.98399 23.23H0.203857V30.9634H7.98399V23.23Z" fill="white"/>
<path d="M39.1165 30.9633H31.3364V23.2299L39.1165 15.4906V30.9633Z" fill="white"/>
<path opacity="0.15" d="M15.7641 38.7026H7.98401V46.436H15.7641V38.7026Z" fill="white"/>
<path d="M39.1165 7.7572H31.3364V15.4906H39.1165V7.7572Z" fill="white"/>
<path opacity="0.15" d="M23.5502 0.0179443H15.7701V7.75134H23.5502V0.0179443Z" fill="white"/>
<path d="M15.7641 15.4906H7.98401V23.224H15.7641V15.4906Z" fill="white"/>
<path opacity="0.15" d="M46.8966 0.0179443H39.1165V7.75134H46.8966V0.0179443Z" fill="white"/>
<path d="M15.7641 27.0967C15.7653 27.8631 15.5377 28.6127 15.11 29.2505C14.6824 29.8882 14.074 30.3855 13.3618 30.6794C12.6497 30.9732 11.8658 31.0504 11.1095 30.9012C10.3532 30.7519 9.65841 30.383 9.11317 29.841C8.56794 29.299 8.19676 28.6085 8.04662 27.8567C7.89648 27.1049 7.97414 26.3258 8.26976 25.6179C8.56539 24.91 9.06568 24.3052 9.7073 23.8802C10.3489 23.4551 11.103 23.2288 11.8741 23.23C12.9058 23.23 13.8952 23.6374 14.6248 24.3625C15.3543 25.0877 15.7641 26.0712 15.7641 27.0967Z" fill="white"/>
<path opacity="0.15" d="M19.6601 46.436C21.8086 46.436 23.5502 44.7049 23.5502 42.5693C23.5502 40.4338 21.8086 38.7026 19.6601 38.7026C17.5117 38.7026 15.7701 40.4338 15.7701 42.5693C15.7701 44.7049 17.5117 46.436 19.6601 46.436Z" fill="white"/>
<path opacity="0.15" d="M4.09393 7.75714C6.24235 7.75714 7.98399 6.02596 7.98399 3.89044C7.98399 1.75492 6.24235 0.0237427 4.09393 0.0237427C1.9455 0.0237427 0.203857 1.75492 0.203857 3.89044C0.203857 6.02596 1.9455 7.75714 4.09393 7.75714Z" fill="white"/>
<path opacity="0.15" d="M46.8847 11.6001C46.8859 12.3665 46.6582 13.1161 46.2306 13.7539C45.8029 14.3916 45.1945 14.8889 44.4824 15.1828C43.7702 15.4766 42.9863 15.5538 42.23 15.4046C41.4737 15.2553 40.779 14.8864 40.2337 14.3444C39.6885 13.8025 39.3173 13.1119 39.1672 12.3601C39.017 11.6083 39.0947 10.8292 39.3903 10.1213C39.6859 9.41343 40.1862 8.80866 40.8278 8.38358C41.4695 7.9585 42.2236 7.73223 42.9946 7.7334C44.0263 7.7334 45.0158 8.14079 45.7453 8.86593C46.4748 9.59108 46.8847 10.5746 46.8847 11.6001Z" fill="white"/>
<path d="M19.6601 23.224C21.8086 23.224 23.5502 21.4928 23.5502 19.3573C23.5502 17.2218 21.8086 15.4906 19.6601 15.4906C17.5117 15.4906 15.7701 17.2218 15.7701 19.3573C15.7701 21.4928 17.5117 23.224 19.6601 23.224Z" fill="white"/>
<path opacity="0.15" d="M27.4463 38.6968C29.5947 38.6968 31.3363 36.9657 31.3363 34.8301C31.3363 32.6946 29.5947 30.9634 27.4463 30.9634C25.2979 30.9634 23.5562 32.6946 23.5562 34.8301C23.5562 36.9657 25.2979 38.6968 27.4463 38.6968Z" fill="white"/>
<path opacity="0.15" d="M39.1046 3.89051C39.0998 4.65475 38.8674 5.40045 38.4365 6.03344C38.0057 6.66643 37.3958 7.15832 36.6839 7.44698C35.972 7.73564 35.19 7.80812 34.4366 7.65528C33.6833 7.50244 32.9924 7.13113 32.4513 6.58824C31.9101 6.04535 31.5429 5.35523 31.3961 4.60504C31.2493 3.85485 31.3294 3.07824 31.6264 2.37329C31.9233 1.66835 32.4238 1.06668 33.0645 0.644274C33.7053 0.221871 34.4576 -0.00231896 35.2265 1.80871e-05C35.7384 0.00157395 36.2449 0.103527 36.717 0.300033C37.1892 0.496539 37.6177 0.783735 37.9779 1.14516C38.3382 1.50658 38.6232 1.93513 38.8165 2.40623C39.0098 2.87733 39.1077 3.38173 39.1046 3.89051Z" fill="white"/>
<path opacity="0.15" d="M46.8847 27.0967C46.8859 27.8631 46.6582 28.6127 46.2306 29.2505C45.8029 29.8882 45.1945 30.3855 44.4824 30.6794C43.7702 30.9732 42.9863 31.0504 42.23 30.9012C41.4737 30.7519 40.779 30.383 40.2337 29.841C39.6885 29.299 39.3173 28.6085 39.1672 27.8567C39.017 27.1049 39.0947 26.3258 39.3903 25.6179C39.6859 24.91 40.1862 24.3052 40.8278 23.8802C41.4695 23.4551 42.2236 23.2288 42.9946 23.23C44.0263 23.23 45.0158 23.6374 45.7453 24.3625C46.4748 25.0877 46.8847 26.0712 46.8847 27.0967Z" fill="white"/>
<path d="M7.98999 15.4906V7.7572H15.7701" fill="white"/>
<path opacity="0.15" d="M15.7701 38.7028V30.9634H23.5502" fill="white"/>
<path d="M39.1165 15.4906V23.2299H31.3364" fill="white"/>
<path opacity="0.15" d="M15.7701 0.0179443V7.75729H7.98999" fill="white"/>
<path d="M23.5502 15.4906H31.3364V23.2299" fill="#F01516"/>
<path opacity="0.15" d="M46.9026 46.436H39.1165V38.7026" fill="white"/>
<path d="M23.5502 15.4906H15.7701V7.7572" fill="white"/>
<path opacity="0.15" d="M31.3364 7.75729H23.5502V0.0179443" fill="white"/>
<path d="M15.7701 23.23H31.3363L23.5502 30.9634" fill="white"/>
<path opacity="0.15" d="M39.1165 15.4906H46.9026V23.2299" fill="white"/>
<path opacity="0.15" d="M0.203857 30.9634H7.98998V38.7028" fill="white"/>
<path d="M23.5502 30.9634V23.23H31.3364" fill="white"/>
<path opacity="0.15" d="M0.203857 46.436V38.7026H7.98998" fill="white"/>
<path opacity="0.15" d="M39.1165 38.7026H31.3364V46.436" fill="white"/>
<path opacity="0.15" d="M7.98998 15.4906V23.2299H0.203857" fill="white"/>
<path d="M31.3363 7.7572L39.1165 15.4906H23.5502" fill="white"/>
<path d="M35.2264 30.9634C34.1947 30.9634 33.2053 31.3708 32.4757 32.096C31.7462 32.8211 31.3364 33.8046 31.3364 34.8301V38.7028H39.1045V34.8301C39.1045 33.8067 38.6963 32.825 37.9694 32.1002C37.2424 31.3754 36.2561 30.9666 35.2264 30.9634Z" fill="white"/>
<path opacity="0.15" d="M4.09393 7.7334C3.06222 7.7334 2.07276 8.14078 1.34323 8.86593C0.613703 9.59107 0.203857 10.5746 0.203857 11.6001L0.203857 15.4668H7.98399V11.6001C7.98399 10.5746 7.57415 9.59107 6.84462 8.86593C6.11509 8.14078 5.12564 7.7334 4.09393 7.7334Z" fill="white"/>
<g opacity="0.15">
<path opacity="0.15" d="M27.447 46.436C29.5954 46.436 31.3371 44.7049 31.3371 42.5693C31.3371 40.4338 29.5954 38.7026 27.447 38.7026C25.2986 38.7026 23.5569 40.4338 23.5569 42.5693C23.5569 44.7049 25.2986 46.436 27.447 46.436Z" fill="white"/>
<path opacity="0.15" d="M31.3304 42.5693H23.5502V46.436H31.3304V42.5693Z" fill="white"/>
</g>
<path d="M131.299 26.5374H136.608L137.655 29.1489H139.648L134.98 17.6083H132.945L128.277 29.1489H130.258L131.299 26.5374ZM133.962 19.9938L135.877 24.7231H132.053L133.962 19.9938Z" fill="#292A40"/>
<path d="M131.215 11.8737V2.17124H135.225V0.344971H125.368V2.17124H129.378V11.8737H131.215Z" fill="#292A40"/>
<path d="M150.57 11.8975V7.54298H153.227C154.187 7.54298 155.108 7.1638 155.787 6.48886C156.466 5.81391 156.848 4.89849 156.848 3.94398C156.848 2.98946 156.466 2.07404 155.787 1.39909C155.108 0.724151 154.187 0.344971 153.227 0.344971H148.733V11.8975H150.57ZM150.57 2.19504H153.227C153.703 2.19504 154.16 2.38306 154.497 2.71774C154.833 3.05243 155.023 3.50635 155.023 3.97967C155.023 4.45298 154.833 4.90691 154.497 5.24159C154.16 5.57627 153.703 5.7643 153.227 5.7643H150.57V2.19504Z" fill="#292A40"/>
<path d="M143.957 17.6083H141.976V29.137H143.807V20.553L146.53 24.3007H148.661L151.384 20.553V29.137H153.221V17.6083H151.24L147.596 22.6588L143.957 17.6083Z" fill="#292A40"/>
<path d="M137.751 11.8737H145.333V10.0474H139.582V7.01949H145.333V5.19916H139.582V2.17124H145.333V0.344971H137.751V11.8737Z" fill="#292A40"/>
<path d="M103.566 31.7367V27.3108H101.471V17.6083H99.4904L92.3985 27.3108H90.9741V31.7367H92.8114V29.1489H101.729V31.7486L103.566 31.7367ZM99.64 27.3108H94.6667L99.64 20.5054V27.3108Z" fill="#292A40"/>
<path d="M100.071 0.344971V11.8737H102.052L108.264 3.26582V11.8737H110.101V0.344971H108.114L101.908 8.93499V0.344971H100.071Z" fill="#292A40"/>
<path d="M105.744 29.137H113.333V27.3108H107.576V24.2829H113.333V22.4625H107.576V19.4346H113.333V17.6083H105.744V29.137Z" fill="#292A40"/>
<path d="M112.974 6.10939C112.975 7.29078 113.32 8.44667 113.968 9.43707C114.616 10.4275 115.538 11.2099 116.625 11.6896C117.711 12.1693 118.914 12.3257 120.087 12.1398C121.261 11.9539 122.355 11.4338 123.238 10.6423L121.939 9.35146C121.413 9.803 120.785 10.1213 120.108 10.2792C119.431 10.4371 118.726 10.4299 118.053 10.2582C117.379 10.0865 116.758 9.75543 116.241 9.29323C115.724 8.83104 115.328 8.25144 115.085 7.60389C114.842 6.95635 114.761 6.26008 114.848 5.57452C114.935 4.88895 115.187 4.23444 115.584 3.66684C115.98 3.09923 116.509 2.63539 117.125 2.31489C117.74 1.99439 118.425 1.82675 119.12 1.82627C120.158 1.82783 121.16 2.20414 121.939 2.88515L123.238 1.59427C122.114 0.569394 120.645 0.000519346 119.12 0C117.491 0.00314437 115.93 0.64782 114.778 1.79287C113.626 2.93792 112.977 4.49004 112.974 6.10939Z" fill="#292A40"/>
<path d="M125.033 29.137H127.026L122.358 17.6083H120.323L115.655 29.137H117.63L121.341 19.9819L125.033 29.137Z" fill="#292A40"/>
<path d="M86.6472 0.344971V11.8737H88.4785V7.01949H94.8402V11.8737H96.6716V0.344971H94.8402V5.19916H88.4785V0.344971H86.6472Z" fill="#292A40"/>
<path d="M188.914 0.344971H183.797V11.8975H188.86C189.619 11.8991 190.348 11.6012 190.887 11.0692C191.425 10.5372 191.73 9.81461 191.733 9.05992C191.726 8.3236 191.435 7.61789 190.921 7.08789C190.407 6.55789 189.708 6.24389 188.968 6.21046V5.61558C189.662 5.60001 190.322 5.31469 190.806 4.82087C191.291 4.32705 191.561 3.6641 191.559 2.97433C191.558 2.27746 191.278 1.60959 190.783 1.11683C190.287 0.624067 189.615 0.346542 188.914 0.344971ZM189.919 8.44719C189.919 8.8716 189.75 9.27862 189.448 9.57872C189.146 9.87882 188.737 10.0474 188.31 10.0474H185.652V6.84697H188.31C188.736 6.84854 189.145 7.01764 189.446 7.3174C189.748 7.61716 189.918 8.02327 189.919 8.44719ZM188.31 5.02665H185.652V2.17124H188.31C188.498 2.17124 188.685 2.20817 188.859 2.27992C189.033 2.35167 189.192 2.45683 189.325 2.58941C189.459 2.72198 189.564 2.87937 189.637 3.05259C189.709 3.22581 189.746 3.41146 189.746 3.59895C189.746 3.78644 189.709 3.97209 189.637 4.14531C189.564 4.31852 189.459 4.47591 189.325 4.60849C189.192 4.74106 189.033 4.84622 188.859 4.91797C188.685 4.98972 188.498 5.02665 188.31 5.02665Z" fill="#292A40"/>
<path d="M60.5597 0.344971H58.5728V11.8737H60.4101V3.28961L63.1332 7.03733H65.2637L67.9868 3.28961V11.8737H69.8241V0.344971H67.8431L64.1984 5.39547L60.5597 0.344971Z" fill="#292A40"/>
<path d="M184.455 38.4706C184.454 37.5166 184.072 36.6021 183.393 35.9275C182.714 35.2529 181.794 34.8732 180.835 34.8716H176.346V46.4004H178.177V42.0697H180.835C181.794 42.0681 182.714 41.6884 183.393 41.0138C184.072 40.3392 184.454 39.4247 184.455 38.4706ZM178.177 36.686H180.835C181.311 36.686 181.767 36.874 182.104 37.2087C182.441 37.5434 182.63 37.9973 182.63 38.4706C182.63 38.944 182.441 39.3979 182.104 39.7326C181.767 40.0673 181.311 40.2553 180.835 40.2553H178.177V36.686Z" fill="#292A40"/>
<path d="M68.0825 29.137V17.6083H58.5728V29.137H60.4101V19.4346H66.2452V29.137H68.0825Z" fill="#292A40"/>
<path d="M159.02 6.10939C159.021 7.29078 159.366 8.44667 160.014 9.43707C160.662 10.4275 161.585 11.2099 162.671 11.6896C163.757 12.1693 164.96 12.3257 166.134 12.1398C167.307 11.9539 168.402 11.4338 169.284 10.6423L167.985 9.35146C167.459 9.803 166.831 10.1213 166.154 10.2792C165.477 10.4371 164.772 10.4299 164.099 10.2582C163.426 10.0865 162.804 9.75543 162.287 9.29323C161.771 8.83104 161.374 8.25144 161.131 7.60389C160.889 6.95635 160.807 6.26008 160.894 5.57452C160.981 4.88895 161.233 4.23444 161.63 3.66684C162.026 3.09923 162.555 2.63539 163.171 2.31489C163.787 1.99439 164.471 1.82675 165.167 1.82627C166.204 1.82783 167.206 2.20414 167.985 2.88515L169.284 1.59427C168.161 0.569394 166.691 0.000519346 165.167 0C163.537 0.00314437 161.976 0.64782 160.824 1.79287C159.672 2.93792 159.023 4.49004 159.02 6.10939Z" fill="#292A40"/>
<path d="M195.832 34.8716H185.982V36.6979H189.991V46.4004H191.829V36.6979H195.832V34.8716Z" fill="#292A40"/>
<path d="M200.058 0C198.842 0 197.654 0.358309 196.643 1.02962C195.632 1.70092 194.844 2.65508 194.379 3.77142C193.914 4.88777 193.792 6.11616 194.029 7.30127C194.267 8.48637 194.852 9.57496 195.711 10.4294C196.571 11.2838 197.666 11.8656 198.858 12.1014C200.051 12.3371 201.287 12.2161 202.41 11.7537C203.533 11.2913 204.493 10.5083 205.168 9.50358C205.843 8.49889 206.204 7.31771 206.204 6.10938C206.201 4.49004 205.552 2.93792 204.4 1.79287C203.248 0.64782 201.687 0.00314437 200.058 0V0ZM200.058 10.3984C199.204 10.3996 198.369 10.1491 197.659 9.6785C196.948 9.20793 196.394 8.53848 196.067 7.75486C195.739 6.97124 195.653 6.10867 195.819 5.27628C195.985 4.44389 196.395 3.6791 196.998 3.07867C197.602 2.47824 198.37 2.06915 199.208 1.90318C200.045 1.7372 200.913 1.82179 201.701 2.14624C202.49 2.4707 203.165 3.02043 203.639 3.72589C204.113 4.43135 204.367 5.26084 204.367 6.10938C204.365 7.2454 203.911 8.33453 203.103 9.13837C202.296 9.94222 201.2 10.3953 200.058 10.3984Z" fill="#292A40"/>
<path d="M177.262 11.8737V2.17124H181.271V0.344971H171.415V2.17124H175.424V11.8737H177.262Z" fill="#292A40"/>
<path d="M73.2234 0.344971V11.8737H75.2043L81.4165 3.26582V11.8737H83.2478V0.344971H81.2669L75.0547 8.93499V0.344971H73.2234Z" fill="#292A40"/>
<path d="M77.1015 29.4821C78.3171 29.4821 79.5055 29.1238 80.5162 28.4525C81.527 27.7812 82.3148 26.827 82.78 25.7107C83.2452 24.5943 83.3669 23.3659 83.1297 22.1808C82.8926 20.9957 82.3072 19.9071 81.4476 19.0527C80.588 18.1983 79.4929 17.6164 78.3006 17.3807C77.1083 17.145 75.8725 17.266 74.7494 17.7284C73.6263 18.1908 72.6664 18.9738 71.991 19.9785C71.3157 20.9832 70.9552 22.1644 70.9552 23.3727C70.9584 24.992 71.6069 26.5442 72.7589 27.6892C73.9109 28.8343 75.4724 29.4789 77.1015 29.4821ZM77.1015 19.0896C77.9554 19.0884 78.7905 19.3391 79.501 19.8099C80.2115 20.2808 80.7655 20.9506 81.0929 21.7345C81.4202 22.5185 81.5062 23.3814 81.3399 24.2139C81.1735 25.0465 80.7625 25.8113 80.1586 26.4115C79.5548 27.0117 78.7854 27.4203 77.9478 27.5856C77.1103 27.7509 76.2422 27.6654 75.4535 27.3401C74.6647 27.0147 73.9909 26.464 73.5172 25.7578C73.0435 25.0516 72.7913 24.2215 72.7925 23.3727C72.7957 22.2377 73.2507 21.1501 74.0581 20.3475C74.8655 19.545 75.9597 19.0927 77.1015 19.0896Z" fill="#292A40"/>
<path d="M128.684 46.4004H136.272V44.5741H130.521V41.5462H136.272V39.7258H130.521V36.6979H136.272V34.8716H128.684V46.4004Z" fill="#292A40"/>
<path d="M155.639 34.8716V46.4004H157.62L163.832 37.7925V46.4004H165.663V34.8716H163.682L157.47 43.4617V34.8716H155.639Z" fill="#292A40"/>
<path d="M145.034 40.8918V46.4004H146.871V40.8918L150.749 46.4004H153.006L148.948 40.636L153.006 34.8716H150.749L146.871 40.3802V34.8716H145.034V40.3802L141.162 34.8716H138.9L142.957 40.636L138.9 46.4004H141.162L145.034 40.8918Z" fill="#292A40"/>
<path d="M69.8241 46.4004V34.8716H67.8431L64.1984 39.9221L60.5597 34.8716H58.5728V46.4004H60.4101V37.8163L63.1332 41.564H65.2637L67.9868 37.8163V46.4004H69.8241Z" fill="#292A40"/>
<path d="M106.133 34.5029C104.918 34.5029 103.729 34.8612 102.719 35.5325C101.708 36.2038 100.92 37.1579 100.455 38.2743C99.9897 39.3906 99.868 40.619 100.105 41.8041C100.342 42.9892 100.928 44.0778 101.787 44.9322C102.647 45.7867 103.742 46.3685 104.934 46.6042C106.127 46.84 107.362 46.719 108.485 46.2566C109.609 45.7942 110.568 45.0111 111.244 44.0064C111.919 43.0018 112.28 41.8206 112.28 40.6122C112.276 38.9929 111.628 37.4408 110.476 36.2957C109.324 35.1507 107.762 34.506 106.133 34.5029ZM106.133 44.8954C105.279 44.8965 104.444 44.6458 103.734 44.175C103.023 43.7042 102.469 43.0344 102.142 42.2504C101.815 41.4664 101.729 40.6036 101.895 39.771C102.061 38.9385 102.472 38.1737 103.076 37.5735C103.68 36.9733 104.449 36.5647 105.287 36.3994C106.125 36.2341 106.993 36.3195 107.781 36.6449C108.57 36.9702 109.244 37.5209 109.718 38.2271C110.191 38.9334 110.444 39.7634 110.442 40.6122C110.444 41.1763 110.334 41.7351 110.118 42.2568C109.902 42.7785 109.585 43.2528 109.185 43.6528C108.785 44.0527 108.31 44.3704 107.786 44.5877C107.262 44.805 106.701 44.9176 106.133 44.9192V44.8954Z" fill="#292A40"/>
<path d="M78.8431 46.7454C80.0587 46.7454 81.247 46.3871 82.2578 45.7158C83.2686 45.0445 84.0563 44.0903 84.5215 42.974C84.9867 41.8576 85.1085 40.6292 84.8713 39.4441C84.6341 38.259 84.0488 37.1704 83.1892 36.316C82.3296 35.4616 81.2344 34.8797 80.0422 34.644C78.8499 34.4083 77.6141 34.5293 76.491 34.9917C75.3679 35.4541 74.408 36.2371 73.7326 37.2418C73.0573 38.2465 72.6968 39.4277 72.6968 40.636C72.6999 42.2553 73.3485 43.8075 74.5005 44.9525C75.6525 46.0976 77.214 46.7422 78.8431 46.7454ZM78.8431 36.3469C79.6968 36.3458 80.5316 36.5963 81.242 37.0669C81.9524 37.5375 82.5064 38.2069 82.8339 38.9905C83.1614 39.7741 83.2477 40.6367 83.0819 41.4691C82.9161 42.3015 82.5056 43.0663 81.9023 43.6667C81.2991 44.2671 80.5303 44.6762 79.6931 44.8422C78.8559 45.0082 77.988 44.9236 77.1992 44.5991C76.4104 44.2747 75.7361 43.7249 75.2617 43.0195C74.7873 42.314 74.5341 41.4845 74.5341 40.636C74.5357 39.5 74.99 38.4109 75.7975 37.607C76.6051 36.8032 77.7002 36.3501 78.8431 36.3469Z" fill="#292A40"/>
<path d="M88.7717 46.4004L92.4822 37.2452L96.1688 46.4004H98.1677L93.4937 34.8716H91.4648L86.7908 46.4004H88.7717Z" fill="#292A40"/>
<path d="M113.914 44.5741V49H115.751V46.4004H124.686V49H126.481V44.5741H124.393V34.8716H122.406L115.338 44.5741H113.914ZM122.579 37.7687V44.5741H117.606L122.579 37.7687Z" fill="#292A40"/>
</g>
<defs>
<clipPath id="clip0">
<rect width="206" height="49" fill="white" transform="translate(0.203857)"/>
</clipPath>
</defs>
</svg>
