<svg width="736" height="105" viewBox="0 0 736 105" fill="none" xmlns="http://www.w3.org/2000/svg">
<g clip-path="url(#clip0)">
<rect width="736" height="105" fill="#3232FD"/>
<path d="M454.033 112.01C455.83 111.336 457.711 110.844 459.471 110.052C461.481 109.449 463.643 109.611 465.542 110.504C467.081 110.748 467.463 112.612 466.919 114.273C465.407 117.995 462.759 121.146 459.352 123.277C457.817 124.465 456.369 125.761 455.019 127.156C454.568 127.561 454.243 128.086 454.081 128.669C453.918 129.253 453.927 129.87 454.104 130.449C454.764 130.554 455.591 131.023 456.303 130.797C462.685 129.484 468.855 127.292 474.635 124.284C477.139 122.788 479.518 121.091 481.749 119.21C483.332 117.862 485.16 116.831 487.132 116.172C490.279 114.745 493.62 113.792 497.047 113.344C498.968 112.991 500.741 112.075 502.141 110.712C503.125 109.955 504.191 109.311 505.319 108.791C505.812 108.585 506.341 108.479 506.876 108.481C507.411 108.482 507.94 108.591 508.432 108.8C508.924 109.009 509.369 109.315 509.741 109.698C510.114 110.082 510.405 110.537 510.599 111.035C510.803 111.564 510.863 112.137 510.774 112.697C510.686 113.257 510.452 113.783 510.095 114.224C509.213 115.475 507.912 116.369 506.428 116.744C503.38 117.747 500.494 119.189 497.861 121.025C494.886 123.095 492.788 126.198 491.976 129.731C491.814 130.399 491.707 131.08 491.655 131.765C491.39 133.506 490.556 135.11 489.283 136.326C488.01 137.542 486.369 138.302 484.618 138.486C482.973 138.66 481.358 139.048 479.814 139.643C477.82 140.598 476.024 141.92 474.52 143.54C473.324 144.711 472.059 145.809 470.732 146.829C469.555 147.663 468.588 148.759 467.908 150.03C467.227 151.302 466.852 152.714 466.812 154.156C467.567 155.401 468.78 156.301 470.191 156.663C471.027 157.025 471.714 157.66 472.14 158.465C472.566 159.27 472.705 160.196 472.535 161.091C472.414 162.474 472.067 163.828 471.506 165.098C470.722 166.337 470.37 167.8 470.507 169.26C470.643 170.719 471.26 172.092 472.26 173.164C472.752 173.838 473.166 174.565 473.495 175.332C474.229 176.594 474.506 178.071 474.278 179.513C474.05 180.955 473.331 182.275 472.243 183.249C469.797 186.243 469.754 187.589 471.692 190.657C472.136 191.365 472.528 192.105 472.863 192.871C473.2 193.767 473.393 194.711 473.436 195.667C473.539 197.063 473.241 198.46 472.577 199.693C471.913 200.926 470.91 201.944 469.687 202.626C468.065 203.561 466.706 204.889 465.734 206.489C464.762 208.089 464.209 209.908 464.126 211.778C463.749 214.106 463.124 216.388 462.261 218.584C461.229 220.874 459.614 222.853 457.577 224.324C454.468 227.143 452.001 230.597 450.34 234.451C448.063 240.032 443.95 244.67 438.681 247.598C434.7 249.608 431.119 252.327 428.114 255.621C426.711 257.177 424.997 258.423 423.084 259.278C421.992 259.859 420.958 260.545 419.998 261.326C417.014 263.597 413.707 265.41 410.187 266.706C408.281 267.249 406.335 267.639 404.367 267.871C402.978 268.103 401.615 268.169 400.29 268.354C399.526 270.948 399.382 273.686 399.871 276.346C399.978 277.159 400.037 277.978 400.047 278.798C400.016 279.25 399.87 279.686 399.623 280.066C399.377 280.446 399.037 280.757 398.637 280.97C398.237 281.183 397.79 281.291 397.337 281.283C396.884 281.276 396.44 281.153 396.048 280.927C394.993 280.248 394.061 279.395 393.29 278.406C391.609 276.562 390.056 274.625 388.557 272.698C387.879 271.804 386.886 271.204 385.779 271.019C384.13 270.758 382.579 270.231 380.938 269.915C379.843 269.726 378.727 269.701 377.625 269.842C375.194 270.247 372.774 270.935 370.335 271.395C366.389 272.322 362.268 272.176 358.398 270.972C356.968 270.746 355.498 270.063 353.719 269.556C353.702 270.125 353.725 270.693 353.788 271.258C354.1 272.491 354.595 273.64 354.797 274.855C355.01 276.164 354.8 277.508 354.198 278.689C353.596 279.871 352.632 280.83 351.447 281.427C350.16 281.985 348.728 282.12 347.359 281.813C345.989 281.505 344.753 280.77 343.828 279.715C342.881 278.684 342.217 277.425 341.899 276.062C341.582 274.698 341.622 273.276 342.015 271.933C342.128 271.218 342.25 270.448 342.433 269.294L340.077 269.936L338.508 270.589C337.127 271.225 335.63 271.572 334.11 271.607C332.589 271.642 331.078 271.366 329.669 270.794C328.259 270.223 326.982 269.369 325.915 268.285C324.849 267.201 324.016 265.91 323.467 264.492C321.403 260.565 318.635 257.052 315.3 254.127C314.22 253.077 313.327 251.849 312.662 250.497C311.594 248.694 310.773 246.761 309.888 244.874C309.286 243.527 308.317 242.376 307.091 241.554C305.865 240.732 304.433 240.273 302.958 240.228C301.198 239.95 299.439 239.672 297.407 239.689C296.159 239.642 294.926 239.978 293.874 240.651C291.71 241.933 289.318 242.78 286.83 243.145C284.712 243.44 282.556 243.038 280.687 242C278.818 240.963 277.337 239.345 276.468 237.392C275.973 236.536 275.689 235.574 275.64 234.586C275.59 233.599 275.776 232.613 276.183 231.712C277.54 228.827 279.055 226.023 280.467 223.147C280.857 222.593 281.195 222.005 281.478 221.39C283.062 217.076 282.842 215.97 279.095 213.293C278.34 212.722 277.665 211.996 276.928 211.316C275.697 210.175 274.181 209.388 272.539 209.039C270.898 208.69 269.192 208.792 267.604 209.334C266.665 209.619 265.745 209.963 264.849 210.364C263.131 210.975 261.26 211.002 259.525 210.443C257.79 209.883 256.288 208.768 255.251 207.268C254.755 206.268 254.354 205.224 254.053 204.149C254.899 202.366 255.79 200.647 256.572 198.911C256.769 198.579 256.871 198.199 256.867 197.812C256.863 197.426 256.753 197.048 256.549 196.72C256.346 196.391 256.056 196.125 255.712 195.949C255.367 195.774 254.982 195.696 254.596 195.725C253.697 195.613 252.784 195.708 251.927 196.002C251.07 196.296 250.291 196.782 249.65 197.422C248.314 198.63 246.912 199.763 245.451 200.816C243.282 202.315 240.815 203.328 238.218 203.786C236.94 204.096 235.594 203.943 234.419 203.354C233.243 202.766 232.313 201.781 231.794 200.573C231.409 199.536 231.106 198.471 230.889 197.387C230.392 195.899 229.562 195.091 228.083 195.534C227.435 195.776 226.728 195.812 226.06 195.636C225.391 195.459 224.794 195.08 224.35 194.549C223.824 193.984 223.422 193.316 223.169 192.587C222.915 191.858 222.816 191.084 222.878 190.315C223.018 189.344 223.444 188.436 224.101 187.707C224.758 186.979 225.617 186.461 226.568 186.221C228.154 185.72 229.832 185.581 231.479 185.814C231.977 187.1 232.935 188.155 234.167 188.775C234.405 188.949 234.68 189.067 234.97 189.119C235.261 189.171 235.559 189.157 235.843 189.077C236.127 188.997 236.389 188.853 236.61 188.657C236.83 188.461 237.003 188.218 237.116 187.945L231.407 185.915C231.65 184.376 230.068 183.337 230.456 181.595C230.603 180.348 231.095 179.167 231.878 178.186C232.661 177.204 233.702 176.461 234.885 176.039C236.705 175.153 238.706 174.698 240.73 174.709C242.423 174.792 244.083 174.229 245.375 173.133C245.654 172.851 245.814 172.473 245.824 172.077C245.772 171.879 245.678 171.695 245.547 171.538C245.416 171.381 245.251 171.255 245.066 171.168C244.011 170.636 242.834 170.392 241.655 170.463C240.475 170.534 239.336 170.917 238.352 171.572C237.444 172.215 236.47 172.76 235.446 173.198C235.138 173.366 234.795 173.461 234.443 173.475C234.092 173.489 233.742 173.422 233.421 173.278C233.1 173.135 232.817 172.919 232.593 172.648C232.369 172.377 232.211 172.058 232.13 171.715C231.905 170.688 231.75 169.647 231.665 168.599C233.447 166.537 235.952 165.239 238.663 164.971C239.433 165.093 240.319 164.838 241.141 164.63C241.863 164.374 242.473 163.874 242.866 163.215C243.258 162.557 243.408 161.782 243.289 161.025C242.903 158.132 241.832 155.374 240.165 152.979C239.78 152.313 239.214 151.769 238.532 151.412C237.85 151.055 237.081 150.898 236.314 150.961L234.21 151.08C228.978 151.38 226 147.753 227.726 142.897C228.731 139.874 228.713 136.603 227.676 133.591C227.737 133.206 227.265 132.624 227.41 132.422C228.325 131.27 227.801 129.947 227.984 128.793C227.946 127.601 228.194 126.418 228.707 125.342C229.22 124.266 229.984 123.329 230.934 122.609C232.225 121.573 233.608 120.665 234.992 119.757C236.375 118.848 237.759 117.94 239.05 116.904C239.42 116.705 239.739 116.423 239.982 116.08C240.225 115.738 240.386 115.343 240.452 114.928C240.517 114.513 240.486 114.088 240.361 113.687C240.235 113.286 240.018 112.919 239.728 112.616L239.398 112.563C237.996 111.418 236.963 109.886 236.424 108.158C235.886 106.429 235.867 104.581 236.37 102.842C236.436 102.097 236.46 101.348 236.443 100.6C235.013 100.374 233.859 100.191 232.649 99.9998C231.254 99.9193 229.909 99.4543 228.762 98.6562C227.615 97.8582 226.711 96.7582 226.15 95.4782C224.979 93.2641 223.625 91.134 222.691 88.8447C222.038 86.9497 221.592 84.9897 221.361 82.9989C221.439 82.504 221.908 81.6765 222.418 81.3062C223.028 80.8449 223.743 80.5424 224.499 80.4259C225.256 80.3094 226.029 80.3825 226.75 80.6386C228.523 81.2259 230.326 81.718 232.152 82.1127C233.528 82.3976 234.936 82.4875 236.337 82.3798C238.394 82.198 238.944 81.2142 238.844 79.0004C238.743 76.7865 238.833 73.3631 239.03 70.6892C239.297 68.9888 238.976 67.2484 238.12 65.755C237.067 65.4789 236.052 65.0723 235.099 64.5447C234.25 64.1101 233.535 63.4514 233.033 62.6401C231.376 59.2221 232.968 56.9942 236.169 56.7113C237.568 56.5383 238.98 56.9026 240.121 57.7307L242.193 59.2418C243.921 59.0077 244.751 57.6738 245.776 56.5396C247.787 53.8866 249.161 50.8066 249.792 47.5377C249.919 47.2826 249.964 46.9947 249.922 46.713C248.719 43.9867 248.647 40.8758 246.503 38.3953C246.008 37.9022 245.584 37.342 245.245 36.731C244.717 35.9308 244.361 35.0303 244.198 34.0858C244.004 33.1931 244.08 32.2631 244.415 31.4133C244.75 30.5635 245.329 29.832 246.08 29.3114C246.747 28.9247 247.502 28.7134 248.273 28.6974C249.045 28.6814 249.807 28.8611 250.49 29.2197C251.099 29.4108 251.662 29.7229 252.147 30.1372C252.631 30.5515 253.027 31.0595 253.311 31.6307C253.594 32.2019 253.759 32.8244 253.796 33.461C253.833 34.0976 253.74 34.735 253.525 35.3351C253.531 35.4662 253.51 35.5972 253.464 35.7199C252.894 37.0838 252.801 38.5999 253.2 40.0231C253.599 41.4463 254.466 42.6934 255.661 43.5628C255.886 43.8135 256.165 44.0099 256.477 44.1373C256.789 44.2647 257.125 44.3197 257.461 44.2982C260.276 43.7928 262.932 42.6293 265.212 40.9024C266.344 40.0738 267.121 38.8481 267.389 37.4708C267.597 36.1512 267.815 34.7767 268.032 33.4021C268.225 31.4774 269.152 29.7011 270.621 28.4428C272.09 27.1845 273.988 26.5411 275.919 26.6466C277.155 26.7389 278.326 27.2413 279.244 28.074C279.91 28.5844 280.464 29.2262 280.871 29.9595C281.279 30.6929 281.531 31.5022 281.613 32.3372C281.912 34.5717 282.557 36.7461 283.525 38.7822C284.61 39.4046 285.787 40.1544 286.991 40.7392C288.553 41.6637 290.21 42.417 291.933 42.9858C296.308 44.1848 300.773 45.1726 305.183 46.1516C306.283 46.3255 307.383 46.4994 308.482 46.6732C309.757 46.9038 311.071 46.6831 312.2 46.049C313.329 45.4148 314.201 44.407 314.667 43.199C316.473 39.1924 317.624 34.922 318.076 30.5507C318.137 29.4548 318.309 28.3679 318.589 27.3067C319.036 26.4643 319.189 25.4969 319.024 24.5577C318.833 23.9505 318.836 23.2991 319.033 22.6939C319.23 22.0886 319.61 21.5598 320.121 21.1808C320.584 20.7468 321.458 20.2087 321.817 20.4345C322.477 20.8747 322.987 21.5059 323.278 22.2435C323.278 22.2435 323.156 23.0132 323.087 23.4531C322.461 27.4117 321.505 31.3182 320.824 35.2682C320.713 36.5119 320.742 37.7641 320.91 39.0013C320.962 40.8129 321.077 42.5782 321.086 44.6646C321.094 46.7511 322.818 48.32 325.035 47.487C328.306 46.3713 331.39 44.7691 334.184 42.7343C335.125 41.9106 335.88 40.8969 336.401 39.7599C337.73 37.3173 339.566 35.1866 341.785 33.5103C342.303 33.085 343.041 32.6945 343.247 32.1071C344.26 29.6186 346.772 29.0577 348.665 27.779C350.095 27.0211 351.625 26.4662 353.209 26.1305L354.78 26.8861C355.352 27.1544 355.864 27.5374 356.283 28.0115C356.701 28.4855 357.018 29.0405 357.214 29.642C357.409 30.2435 357.479 30.8787 357.419 31.5083C357.359 32.1379 357.17 32.7485 356.865 33.3022C356.285 35.0296 355.092 36.4849 353.513 37.3935C352.313 38.1016 351.156 38.8782 350.045 39.7194C348.466 40.8516 347.157 42.3188 346.21 44.0159C345.417 45.4685 344.725 46.9934 343.897 48.6659C344.656 50.8712 346.119 52.7659 348.06 54.058C348.37 54.3936 348.745 54.661 349.164 54.8433C349.582 55.0255 350.034 55.1185 350.49 55.1165C350.947 55.1144 351.397 55.0172 351.814 54.8312C352.231 54.6451 352.604 54.3743 352.91 54.0359C354.038 53.216 355.118 52.3332 356.146 51.3916C357.533 50.2102 359.238 49.465 361.046 49.2497C362.855 49.0343 364.688 49.3584 366.313 50.1812C367.35 50.6221 368.228 51.3671 368.832 52.318C369.437 53.2689 369.738 54.3807 369.697 55.5066C369.844 57.4409 369.259 59.3598 368.058 60.8831C367.024 62.2104 366.12 63.6337 365.357 65.1336C364.727 66.1403 364.418 67.3151 364.472 68.5015C364.526 69.688 364.941 70.8299 365.66 71.7751C366.997 73.7173 368.915 75.1849 371.14 75.9665C372.429 76.5014 373.75 76.955 375.096 77.3246C376.712 77.7105 378.23 78.4304 379.552 79.4381C380.214 79.881 381.077 80.13 381.803 80.5266C382.465 80.931 383.251 81.0834 384.016 80.956C384.781 80.8287 385.475 80.43 385.97 79.833C387.58 78.4732 388.823 76.7326 389.589 74.7695C390.321 72.6311 391.201 70.6287 391.98 68.5539C392.736 66.8359 393.233 65.0153 393.454 63.1514C393.555 62.0487 393.938 60.9904 394.565 60.0782C395.193 59.166 396.045 58.4306 397.039 57.9426C398.033 57.4546 399.136 57.2304 400.241 57.2915C401.347 57.3527 402.418 57.6972 403.352 58.2918C403.967 58.6382 404.462 59.1619 404.775 59.7944C405.087 60.4268 405.201 61.1388 405.102 61.8372C404.896 65.737 403.87 69.5496 402.093 73.0271C401.569 73.846 400.99 74.6561 400.521 75.4837C399.279 77.6369 397.844 79.6734 396.234 81.5686C394.901 83.6781 393.38 85.6633 391.69 87.5C390.298 88.6917 389.393 90.3541 389.148 92.1702C388.922 93.5997 389.911 94.8269 391.254 94.532C395.776 93.844 400.36 93.6615 404.922 93.988C409.642 93.9831 414.321 94.8758 418.708 96.6185C423.419 98.2954 427.869 100.631 431.925 103.555C433.577 104.8 434.887 106.442 435.736 108.328C436.491 109.969 437.301 111.618 438.183 113.167C438.587 113.989 439.269 114.642 440.107 115.011C440.945 115.381 441.887 115.443 442.766 115.188C445.461 114.543 448.23 114.135 450.887 113.372C452.008 112.895 453.069 112.287 454.047 111.561L454.033 112.01ZM241.425 187.781C243.064 189.126 245.124 189.851 247.244 189.828C248.63 189.969 250.017 189.585 251.134 188.753C251.368 188.528 251.546 188.252 251.653 187.945C251.76 187.639 251.794 187.312 251.75 186.99C251.714 186.714 251.62 186.449 251.472 186.212C251.325 185.976 251.129 185.774 250.897 185.62C250.665 185.465 250.403 185.363 250.128 185.319C249.853 185.274 249.571 185.29 249.303 185.364L241.425 187.781Z" fill="#C234E2"/>
<path d="M180.449 38.7735C178.23 38.6442 176.145 37.6692 174.624 36.0492C173.209 34.6361 172.269 32.8175 171.934 30.8458C171.6 28.8741 171.887 26.8471 172.757 25.0463C173.083 24.2719 173.465 23.5224 173.9 22.8038C174.284 22.0666 174.828 21.4246 175.492 20.925C176.156 20.4254 176.924 20.0808 177.738 19.9166C178.425 19.8255 179.097 19.6477 179.738 19.3874C184.563 17.3888 183.555 18.413 187.762 20.318C189.114 20.8692 190.307 21.7502 191.231 22.8807C192.154 24.0112 192.78 25.3552 193.051 26.7898C193.393 28.2898 193.39 29.8481 193.04 31.3464C192.691 32.8447 192.004 34.2437 191.033 35.4373C190.062 36.6308 188.833 37.5876 187.437 38.235C186.041 38.8823 184.516 39.2032 182.978 39.1734C182.127 39.0959 181.282 38.9623 180.449 38.7735Z" fill="#C234E2"/>
<path d="M328.902 -17.9529C329.365 -17.8171 329.797 -17.5912 330.173 -17.2882C330.549 -16.9853 330.862 -16.6111 331.093 -16.1872C331.324 -15.7633 331.47 -15.2979 331.521 -14.8178C331.573 -14.3376 331.529 -13.852 331.392 -13.3888C331.055 -12.1992 330.608 -11.0435 330.057 -9.93667C328.691 -7.18071 328.199 -4.07282 328.649 -1.02967C328.692 3.01338 327.436 6.96339 325.064 10.2383C324.928 10.4377 324.751 10.6053 324.544 10.7296C324.337 10.8539 324.106 10.9319 323.866 10.9583C323.627 10.9846 323.384 10.9587 323.155 10.8823C322.926 10.8058 322.717 10.6807 322.541 10.5156C322.081 10.2052 321.687 9.80633 321.383 9.34218C321.079 8.87803 320.871 8.35795 320.77 7.81232C320.031 3.97735 320.366 0.0127877 321.736 -3.64428C323.001 -6.73002 323.871 -9.96259 324.328 -13.2658C324.415 -13.8156 324.502 -14.3654 324.589 -14.9153C324.963 -17.2795 326.326 -18.4165 328.902 -17.9529Z" fill="#C234E2"/>
<path d="M222.937 109.733C221.236 108.732 218.727 107.49 216.499 105.898C216.049 105.55 215.7 105.087 215.49 104.558C215.28 104.029 215.216 103.453 215.305 102.891C215.394 102.329 215.632 101.801 215.995 101.362C216.358 100.924 216.833 100.592 217.369 100.4C217.913 100.292 218.478 100.381 218.963 100.652L225.641 104.751C225.956 105.015 226.23 105.324 226.454 105.668C227.25 106.696 227.918 107.816 227.206 109.112C226.494 110.408 225.203 110.373 222.937 109.733Z" fill="#C234E2"/>
<path d="M411.365 87.795C411.602 86.6298 412.158 85.5536 412.972 84.6869C413.786 83.8202 414.825 83.1973 415.973 82.888C416.738 82.538 417.608 82.4949 418.404 82.7676C419.2 83.0402 419.861 83.6077 420.25 84.3532C420.629 85.0217 420.77 85.7989 420.65 86.5579C420.53 87.3169 420.156 88.0128 419.59 88.5318C418.082 90.1648 416.065 91.2369 413.868 91.572C412.131 91.861 410.939 90.4891 411.365 87.795Z" fill="#C234E2"/>
<path d="M184.939 88.4538C185.128 88.9472 185.149 89.4892 184.997 89.9953C184.846 90.5015 184.531 90.9433 184.102 91.252C181.598 93.0318 178.614 94.0136 175.542 94.0688C175.13 94.0887 174.718 94.0236 174.332 93.8776C173.857 93.7726 173.421 93.5341 173.076 93.1901C172.731 92.8461 172.491 92.4108 172.385 91.9354C172.332 91.4543 172.425 90.9684 172.654 90.5417C172.882 90.115 173.235 89.7676 173.665 89.5453C175.336 88.5146 177.221 87.8803 179.175 87.6911C181.13 87.5019 183.102 87.7628 184.939 88.4538Z" fill="#C234E2"/>
<path d="M197.691 22.3898C197.535 23.3795 196.788 23.825 196.108 23.492C193.739 22.3587 191.785 20.5126 190.518 18.2125C190.292 17.7052 190.254 17.1341 190.41 16.6012C190.567 16.0683 190.908 15.6086 191.373 15.3043C191.781 15.0515 192.266 14.9537 192.741 15.0287C193.215 15.1037 193.646 15.3465 193.957 15.7129C195.591 17.5054 196.831 19.6214 197.596 21.9239C197.653 22.0729 197.685 22.2303 197.691 22.3898Z" fill="#C234E2"/>
<path d="M431.268 99.8412C430.84 100.055 430.513 100.342 430.229 100.353C429.946 100.365 429.795 99.8901 429.555 99.6267C429.315 99.3634 430.154 99.0452 430.438 99.0337C430.721 99.0222 430.88 99.4418 431.268 99.8412Z" fill="#C234E2"/>
<path d="M233.73 32.9351L233.27 33.7077C232.986 33.5353 232.715 33.3418 232.46 33.1287C232.46 33.1287 232.556 32.5239 232.556 32.5239C232.958 32.6285 233.351 32.766 233.73 32.9351Z" fill="#C234E2"/>
<path d="M482.782 38.9428C482.901 38.5581 483.135 38.2193 483.453 37.9728C483.771 37.7263 484.158 37.584 484.56 37.5653C485.041 37.4097 485.557 37.4045 486.041 37.5503C486.525 37.6962 486.953 37.9862 487.268 38.3816L486.984 38.4119L486.855 39.1218L487.058 39.1001L487.002 38.5738C487.002 38.5738 487.002 38.5738 486.971 38.2904C487.632 38.4721 488.248 38.7885 488.781 39.2199C489.313 39.6512 489.751 40.1881 490.066 40.7967C490.381 41.4054 490.567 42.0726 490.611 42.7565C490.656 43.4404 490.559 44.1261 490.325 44.7705C490.096 45.5332 489.805 46.2763 489.457 46.9927L490.017 47.629C489.114 48.3807 489.361 49.5418 489.452 50.392C489.54 51.3467 489.402 52.3087 489.049 53.2001C488.696 54.0915 488.138 54.8872 487.42 55.523C486.503 56.5219 485.747 57.8722 484.07 57.8876C484.07 57.8876 483.704 58.2952 483.649 58.5468C483.243 59.7367 482.253 60.0473 481.203 60.569C479.481 61.1602 477.677 61.4773 475.857 61.5087C475.175 61.5761 474.488 61.4703 473.858 61.2012C473.228 60.9321 472.676 60.5083 472.253 59.9692C472.426 59.4235 472.689 58.9108 473.033 58.4527C473.477 58.0413 473.816 57.5282 474.019 56.9573C474.222 56.3865 474.283 55.7749 474.198 55.1751C474.192 54.0057 474.314 52.8391 474.563 51.6964C475.899 51.5536 476.58 52.177 477.336 53.1199C477.595 51.3648 477.274 49.573 476.422 48.017C476.789 47.8053 477.187 47.6522 477.602 47.5633C478.001 47.4751 478.37 47.283 478.672 47.0063C478.973 46.7296 479.196 46.3782 479.317 45.9878C479.317 45.9878 479.257 45.4209 478.884 45.3789C478.511 45.3368 478.032 45.8385 478.112 45.0519C478.191 44.2653 478.456 44.4418 478.622 44.465C479.999 44.3179 479.967 43.2566 480.605 42.3285L479.531 42.2385C479.427 41.2668 480.189 40.735 480.74 40.1437C481.312 39.6392 481.919 39.1774 482.558 38.762C483.079 39.0339 483.576 39.4722 484.238 39.1557L484.212 38.9128L484.191 38.7104C484.191 38.7104 483.349 38.8822 482.782 38.9428ZM489.398 41.8394L488.467 40.7923L488.184 40.8226C488.184 40.8226 488.227 41.2274 488.24 41.3489C488.356 41.5715 488.553 41.7411 488.79 41.8224C489.028 41.9038 489.287 41.8907 489.515 41.7859L489.398 41.8394ZM483.089 45.2572C483.447 45.5465 483.684 45.8488 483.886 45.8271C484.089 45.8055 484.261 45.5004 484.487 45.3125C484.712 45.1246 484.079 44.9466 483.872 44.9277C483.666 44.9089 483.44 45.0968 483.076 45.1357L483.089 45.2572ZM475.163 56.5462L475.366 56.5245L475.344 56.3221L475.163 56.5462Z" fill="#C234E2"/>
<path d="M537.44 101.328C539.32 100.84 541.293 100.84 543.173 101.329C544.348 101.681 545.591 101.745 546.796 101.515C547.889 101.399 549.023 101.277 550.116 101.161C551.327 100.989 552.558 101.282 553.562 101.98C555.193 102.989 557.111 103.432 559.02 103.24C559.925 103.274 560.822 103.425 561.689 103.691C562.089 103.751 562.471 103.897 562.81 104.118C563.149 104.34 563.436 104.632 563.651 104.974C563.867 105.316 564.006 105.701 564.058 106.103C564.111 106.504 564.077 106.912 563.958 107.298C563.526 109.392 562.2 110.393 560.573 110.117C558.098 109.665 555.592 109.399 553.077 109.321C548.573 108.651 544.154 107.504 539.894 105.898C539.42 105.729 538.97 105.502 538.552 105.222C537.413 104.525 536.746 103.654 537.373 102.236C537.44 101.938 537.463 101.632 537.44 101.328Z" fill="#C234E2"/>
<path d="M516.351 57.2671C516.33 57.0647 516.299 56.7813 516.538 56.7148C517.256 56.2356 518.097 55.9741 518.96 55.9617C519.824 55.9494 520.672 56.1868 521.403 56.6454C521.608 56.8597 521.856 57.0287 522.13 57.1413C522.404 57.254 522.699 57.3078 522.995 57.2993C523.292 57.2908 523.583 57.2202 523.85 57.092C524.117 56.9638 524.355 56.7809 524.547 56.5552C524.736 56.4013 524.941 56.2694 525.16 56.162C525.716 56.3262 526.25 56.558 526.749 56.8522C527.083 57.0489 527.371 57.3156 527.592 57.634C527.813 57.9524 527.963 58.315 528.031 58.6967C528.099 59.0785 528.084 59.4704 527.986 59.8457C527.888 60.2209 527.711 60.5706 527.465 60.8706C526.92 61.5846 526.154 62.0983 525.287 62.3319C524.153 62.453 523.543 63.2553 522.687 63.6744C522.756 64.3222 523.446 65.0265 522.562 65.5714C520.646 66.7999 518.725 67.9879 516.638 69.1527C516.426 69.3719 516.144 69.5097 515.841 69.5421C515.537 69.5746 515.232 69.4995 514.978 69.3301C514.66 69.0365 514.827 67.913 515.31 67.4519C515.913 66.6317 516.718 65.9814 517.647 65.5642C518.052 65.5209 517.993 64.5854 517.509 64.2686C517.198 63.9275 516.82 63.6546 516.398 63.4671C515.976 63.2795 515.52 63.1815 515.058 63.1792C513.846 63.1549 512.658 62.8317 511.6 62.2383C509.985 61.3052 509.855 60.0906 511.245 58.9184C511.814 58.4891 512.386 58.1003 512.95 57.6305C513.34 57.2328 513.856 56.9829 514.41 56.9237C514.964 56.8645 515.522 56.9997 515.987 57.3061L516.512 57.6185L516.351 57.2671Z" fill="#C234E2"/>
<path d="M279.012 97.5344L276.895 97.2692C276.278 97.2444 275.688 97.011 275.221 96.6072C274.754 96.2033 274.437 95.653 274.323 95.0461C274.056 94.3452 273.988 93.584 274.126 92.8467C274.264 92.1093 274.603 91.4245 275.105 90.8676C275.631 90.1834 276.36 89.6837 277.188 89.4407C278.016 89.1977 278.899 89.2239 279.711 89.5155C280.735 89.8975 281.822 90.1089 282.922 90.4418L283.457 89.3199C284.232 89.1192 285.038 89.0736 285.83 89.1857C286.622 89.2979 287.385 89.5655 288.073 89.9733C288.337 90.1165 288.624 90.2106 288.921 90.2512C291.71 91.0588 292.046 91.5144 291.957 94.5132C290.966 96.0285 289.414 97.0891 287.643 97.4626C285.871 97.8361 284.024 97.4921 282.506 96.5059C281.736 96.5881 281.869 97.0653 281.746 97.447C281.623 97.8287 281.165 97.7548 280.947 97.2457C280.728 96.7367 280.429 96.2363 279.077 95.8485L278.931 97.5431L279.012 97.5344Z" fill="#C234E2"/>
<path d="M444.609 24.6709C444.58 24.1691 444.411 23.6854 444.121 23.2748C443.831 22.8643 443.432 22.5433 442.968 22.3483C442.368 22.0983 441.825 21.7291 441.372 21.2632C440.919 20.7972 440.565 20.2441 440.332 19.6374C440.098 19.0306 439.991 18.3829 440.015 17.7333C440.039 17.0837 440.195 16.4458 440.473 15.8582C441.89 12.6357 441.985 12.3798 445.626 11.5812L445.383 11.6072C447.024 10.8268 448.854 10.5318 450.657 10.7571C451.071 10.7723 451.465 10.9373 451.767 11.2214C452.068 11.5055 452.256 11.8894 452.296 12.3018C452.426 12.7871 452.451 13.2945 452.37 13.7903C452.289 14.2861 452.103 14.759 451.825 15.1776C451.446 15.883 450.979 16.5381 450.437 17.1277C448.46 19.1261 446.705 21.3318 445.202 23.7066C444.952 24.001 444.68 24.2764 444.389 24.5306L444.609 24.6709Z" fill="#C234E2"/>
<path d="M318.179 37.5307C318.367 38.974 317.978 40.4331 317.098 41.5923C316.218 42.7516 314.917 43.5178 313.477 43.7251C312.428 43.6531 311.411 43.3361 310.508 42.7997C309.604 42.2633 308.839 41.5224 308.274 40.6366C307.822 39.9635 307.53 39.1965 307.42 38.3937C307.396 37.5009 307.537 36.6114 307.835 35.7695C308.002 34.7196 308.542 33.7654 309.358 33.0835C310.173 32.4016 311.208 32.0382 312.271 32.0605C313.604 32.0318 314.905 32.4643 315.955 33.2848C317.006 34.1053 317.74 35.2635 318.035 36.5633C318.12 36.8792 318.168 37.2038 318.179 37.5307Z" fill="#C234E2"/>
<path d="M268.843 45.2593C268.631 44.6686 268.378 44.0935 268.085 43.5384C267.875 43.1858 267.763 42.7829 267.762 42.3721C267.762 41.9613 267.872 41.558 268.082 41.2047C268.384 40.6086 268.883 40.1356 269.495 39.8662C270.104 39.5216 270.778 39.3054 271.474 39.231C272.171 39.1566 272.875 39.2255 273.543 39.4336C275.304 39.8187 277.076 39.916 278.809 40.4269C280.088 40.7447 281.252 41.4149 282.169 42.3611C282.617 42.6958 282.946 43.1658 283.107 43.7018C283.267 44.2377 283.251 44.8111 283.06 45.3371C282.818 45.9003 282.42 46.3826 281.912 46.727C281.405 47.0714 280.81 47.2636 280.197 47.281C278.51 47.4441 276.808 47.3214 275.162 46.9181C273.066 46.0774 270.786 46.1983 268.843 45.2593Z" fill="#C234E2"/>
<path d="M276.579 -6.50318C278.06 -5.67859 278.678 -4.10669 279.765 -2.74866C279.82 -2.45476 279.852 -2.15691 279.86 -1.85794C279.37 1.22463 278.572 1.80132 275.66 1.37539C272.968 0.986403 270.444 -0.164765 268.385 -1.94217C267.732 -2.43166 267.268 -3.13177 267.071 -3.92408C266.875 -4.71638 266.958 -5.55228 267.306 -6.29039C267.645 -7.12872 268.254 -7.83033 269.036 -8.28461C269.818 -8.73888 270.728 -8.91997 271.625 -8.79928C273.539 -8.55731 275.306 -7.64314 276.609 -6.21978L276.22 -5.64586L276.242 -5.44341L276.579 -6.50318Z" fill="#C234E2"/>
<path d="M501.517 73.6257C501.339 74.2607 500.943 74.8128 500.399 75.1854C499.855 75.558 499.197 75.7273 498.541 75.6636C497.834 75.6775 497.129 75.7528 496.436 75.8886C495.504 76.1297 494.533 76.1718 493.585 76.0121C492.636 75.8524 491.732 75.4945 490.931 74.9617C489.994 74.2428 488.55 74.52 487.551 73.603C488.205 72.4099 489.185 71.4275 490.376 70.7709C491.568 70.1142 492.922 69.8102 494.28 69.8946C495.252 69.7908 496.223 69.687 497.64 69.5355C499.057 69.3841 499.857 70.732 501.13 71.5377C502.404 72.3434 502.164 72.7786 501.347 73.562L501.056 73.1427L501.091 73.4666L501.517 73.6257Z" fill="#C234E2"/>
<path d="M293.782 68.2625C293.195 67.9492 292.744 67.4288 292.518 66.8023C292.293 66.1757 292.308 65.4877 292.56 64.8714C292.521 64.5071 293.188 64.2311 293.626 63.7338L293.457 62.1548L295.144 61.0737C295.667 61.7549 296.303 62.3422 297.155 61.8826C297.736 61.4968 298.279 61.0548 298.774 60.5629C299.457 60.7051 300.1 60.9981 300.655 61.4206C301.211 61.843 301.664 62.3842 301.984 63.0046C302.39 63.6558 302.613 64.4042 302.63 65.1713C302.646 65.9385 302.457 66.696 302.08 67.3645C301.703 68.0329 301.153 68.5877 300.489 68.9706C299.824 69.3534 299.068 69.5503 298.301 69.5405C297.962 69.6466 297.603 69.6694 297.255 69.6069C296.906 69.5443 296.577 69.3983 296.297 69.1814C296.863 69.1208 296.577 68.7419 296.227 68.5336L296.31 69.3028C295.829 69.3404 295.347 69.271 294.896 69.0996C294.446 68.9282 294.04 68.6591 293.706 68.3116C293.979 68.3283 294.252 68.2991 294.516 68.2251C294.681 68.0056 294.768 67.7366 294.762 67.4617C294.762 67.4617 294.48 67.1233 294.363 67.1768C294.098 67.2344 293.866 67.3911 293.713 67.6147C293.701 67.833 293.724 68.0518 293.782 68.2625Z" fill="#C234E2"/>
<path d="M325.908 26.3067C325.997 25.6631 326.149 25.0297 326.361 24.4156C326.59 23.9143 327.003 23.5198 327.513 23.3129C328.024 23.106 328.595 23.1025 329.109 23.303C331.3 24.1478 333.096 25.7818 334.143 27.8837C334.216 28.161 334.246 28.4476 334.234 28.7339C334.489 31.1226 333.541 32.2068 331.232 31.6755C329.225 31.094 327.483 29.8324 326.305 28.107C326.07 27.5343 325.936 26.9252 325.908 26.3067Z" fill="#C234E2"/>
<path d="M283.335 74.3416L284.547 71.5093C284.956 71.5202 285.364 71.4766 285.762 71.3795C286.616 71.0639 287.525 70.9201 288.435 70.9563C289.346 70.9926 290.24 71.2081 291.067 71.5907C291.797 71.8564 292.436 72.3254 292.908 72.9425C293.381 73.5596 293.666 74.2989 293.732 75.0733C292.858 76.477 291.235 76.6096 289.882 77.3683C288.834 77.3119 287.836 76.8983 287.054 76.1963C286.908 76.0858 286.735 76.0153 286.553 75.9916C286.371 75.968 286.186 75.9921 286.016 76.0616C285.855 76.1831 285.669 76.2688 285.472 76.3131C285.275 76.3573 285.07 76.3591 284.872 76.3183C284.674 76.2775 284.487 76.195 284.323 76.0764C284.16 75.9577 284.023 75.8056 283.923 75.6301C283.688 75.2192 283.491 74.788 283.335 74.3416Z" fill="#C234E2"/>
<path d="M320.059 107.272C319.851 107.685 319.518 108.022 319.107 108.236C318.696 108.449 318.228 108.526 317.77 108.458C317.291 108.552 316.798 108.539 316.325 108.42C315.852 108.301 315.411 108.078 315.035 107.768C314.631 107.408 314.185 107.098 313.707 106.845L313.718 104.264C313.961 104.238 314.326 104.199 314.449 103.817C314.572 103.435 315.501 103.705 315.921 103.414C316.34 103.124 316.635 102.437 317.1 102.183C317.564 101.928 318.355 102.048 318.417 102.246C318.834 103.471 319.977 103.431 320.83 103.749C321.175 103.822 321.488 104.002 321.724 104.264C321.961 104.525 322.109 104.855 322.146 105.206C322.184 105.557 322.109 105.91 321.933 106.216C321.757 106.521 321.489 106.764 321.167 106.907C320.819 107.097 320.45 107.246 320.068 107.353L320.059 107.272Z" fill="#C234E2"/>
<path d="M516.673 107.804C516.176 107.36 515.795 106.801 515.564 106.176C515.333 105.551 515.259 104.879 515.348 104.219L516.203 103.022C516.927 102.126 517.609 101.234 518.941 102.197C519.143 102.175 519.75 102.11 520.115 102.071C520.625 102.105 521.112 102.298 521.507 102.623C521.901 102.949 522.184 103.389 522.315 103.884C522.455 104.474 522.424 105.092 522.224 105.665C522.024 106.238 521.664 106.742 521.186 107.117C519.902 107.745 518.635 108.536 517.112 107.306C517.112 107.306 516.692 107.597 516.422 107.749L516.673 107.804Z" fill="#C234E2"/>
<path d="M320.913 57.3901C319.733 57.2651 318.562 57.0618 317.409 56.7818C317.091 56.6956 316.795 56.5451 316.538 56.3397C316.281 56.1343 316.069 55.8783 315.915 55.5876C315.761 55.2969 315.669 54.9778 315.643 54.6498C315.618 54.3219 315.66 53.9923 315.767 53.6813C316.035 53.1613 316.49 52.7617 317.04 52.5625C318.199 52.2153 319.44 52.2632 320.569 52.6985C321.698 53.1338 322.65 53.932 323.275 54.9674C323.414 55.1481 323.504 55.3608 323.537 55.5858C323.571 55.8108 323.547 56.0406 323.467 56.2537C323.388 56.4668 323.255 56.6563 323.082 56.8043C322.91 56.9523 322.702 57.054 322.479 57.0999C322.079 57.1837 321.674 57.2269 320.913 57.3901Z" fill="#C234E2"/>
<path d="M516.509 47.9967C516.477 48.4652 516.389 48.9282 516.247 49.376C515.437 50.899 514.113 52.0852 512.51 52.7237C511.933 52.8426 511.332 52.7624 510.807 52.4962C510.685 52.4541 510.575 52.3865 510.482 52.2979C510.389 52.2093 510.316 52.1018 510.268 51.9826C510.221 51.8634 510.199 51.7354 510.205 51.6072C510.211 51.479 510.245 51.3536 510.304 51.2395C510.816 50.2839 510.938 49.1243 512.019 48.5174C513.101 47.9104 512.883 47.4013 513.407 46.9359C513.657 46.683 513.987 46.5242 514.341 46.4864C514.695 46.4486 515.052 46.534 515.35 46.7282C515.798 47.0905 516.189 47.5181 516.509 47.9967Z" fill="#C234E2"/>
<path d="M479.588 97.1862C480.439 97.0954 481.329 97.0002 482.22 96.905C482.568 96.9592 482.89 97.1193 483.143 97.3633C483.396 97.6074 483.568 97.9237 483.635 98.2689C483.662 98.5699 483.598 98.8721 483.451 99.1361C483.304 99.4001 483.081 99.6137 482.811 99.7493C482.494 99.9966 482.108 100.138 481.707 100.154C480.309 100.098 478.907 100.003 477.576 99.8173C477.33 99.7697 477.108 99.6395 476.946 99.4483C476.784 99.2571 476.692 99.0163 476.686 98.7658C476.652 98.4701 476.727 98.1722 476.897 97.9278C477.067 97.6834 477.32 97.5095 477.609 97.4387C478.276 97.3051 478.953 97.2327 479.633 97.2224L479.588 97.1862Z" fill="#C234E2"/>
<path d="M506.099 79.7269C506.549 79.6028 507.025 79.6122 507.469 79.7538C507.913 79.8954 508.306 80.1631 508.601 80.5243C508.681 80.6877 508.701 80.8741 508.657 81.0507C508.761 82.0224 507.571 82.7638 505.902 82.8602C504.835 83.1256 503.716 83.1039 502.66 82.7971C502.185 82.5613 501.628 82.3341 501.77 81.7456C501.81 81.5097 501.9 81.2851 502.034 81.0871C502.168 80.889 502.344 80.7222 502.548 80.5978C503.715 80.2419 504.9 79.9512 506.099 79.7269Z" fill="#C234E2"/>
<path d="M498.232 95.7637L497.011 98.515C492.422 95.8112 492.422 95.8113 492.184 94.7311C492.968 94.4017 493.792 94.0679 494.697 93.7254C495.394 93.8077 496.066 94.0308 496.674 94.3812C497.282 94.7316 497.812 95.202 498.232 95.7637Z" fill="#C234E2"/>
<path d="M456.5 45.1432C456.396 44.5362 456.522 43.9125 456.852 43.393C457.183 42.8734 457.694 42.4951 458.288 42.3314C458.68 42.2435 459.091 42.2818 459.461 42.4408C459.831 42.5997 460.141 42.8713 460.348 43.2169C460.636 43.5325 460.843 43.9143 460.949 44.3286C461.055 44.7428 461.057 45.1768 460.956 45.5923C460.855 46.0078 460.653 46.392 460.368 46.7109C460.083 47.0299 459.724 47.2739 459.323 47.4213C459.022 47.6145 458.658 47.6837 458.307 47.6143C457.956 47.5449 457.645 47.3424 457.44 47.0492C457.091 46.4321 456.777 45.7958 456.5 45.1432Z" fill="#C234E2"/>
<path d="M359.273 1.31856C358.404 1.31185 357.556 1.04498 356.839 0.552338C356.122 0.0596922 355.569 -0.636184 355.252 -1.44574C355.217 -1.76964 355.152 -2.37696 355.469 -2.86125C355.5 -2.98554 355.559 -3.1008 355.643 -3.19771C355.727 -3.29463 355.832 -3.37046 355.95 -3.41902C356.069 -3.46759 356.197 -3.48751 356.325 -3.47721C356.452 -3.46691 356.576 -3.42667 356.685 -3.35974C356.991 -3.30429 357.275 -3.16448 357.506 -2.95608C358.435 -2.04139 359.108 -0.899 359.457 0.357054C359.528 0.636137 359.364 1.02217 359.273 1.31856Z" fill="#C234E2"/>
<path d="M438.058 11.6599C437.612 11.7075 437.248 11.7464 437.046 11.768C436.843 11.7897 436.446 11.136 436.501 10.8844C436.528 10.6356 436.609 10.3956 436.738 10.1806C436.866 9.96572 437.039 9.78083 437.245 9.6385C437.451 9.49617 437.686 9.39969 437.932 9.35556C438.179 9.31143 438.432 9.3207 438.674 9.38272C438.807 9.43113 438.927 9.51036 439.023 9.61394C439.12 9.71752 439.191 9.84247 439.229 9.97859C439.274 10.4414 439.182 10.9071 438.963 11.3174C438.814 11.4562 438.288 11.5125 438.058 11.6599Z" fill="#C234E2"/>
<path d="M444.541 24.433C443.792 26.0461 442.947 27.6131 442.012 29.1258C441.692 26.1297 442.262 25.3317 444.59 24.5097L444.541 24.433Z" fill="#C234E2"/>
<path d="M277.042 103.599C277.103 103.847 277.066 104.11 276.936 104.33C276.807 104.551 276.596 104.712 276.349 104.778C276.06 104.849 275.755 104.812 275.492 104.675C275.228 104.537 275.024 104.308 274.917 104.03C274.877 103.788 274.925 103.54 275.053 103.331C275.181 103.121 275.381 102.965 275.615 102.891C275.753 102.826 275.905 102.794 276.058 102.795C276.211 102.797 276.362 102.833 276.499 102.901C276.636 102.969 276.756 103.067 276.85 103.188C276.944 103.309 277.009 103.449 277.042 103.599Z" fill="#C234E2"/>
<path d="M479.681 91.9392C480.329 91.87 480.814 91.8181 481.331 92.0496C481.847 92.2811 481.985 92.43 481.826 92.8565C481.667 93.283 481.433 93.39 481.267 93.3668C480.727 93.2203 480.2 93.0302 479.691 92.7981C479.691 92.7981 479.692 92.4294 479.681 91.9392Z" fill="#C234E2"/>
<path d="M485.638 93.2653L489.242 92.8803C488.844 93.3733 488.68 93.7592 488.595 93.7274C487.638 93.584 486.672 93.3596 485.706 93.1352L485.638 93.2653Z" fill="#C234E2"/>
<path d="M485.709 93.1672L483.442 93.4095C483.693 92.3179 484.453 92.5234 485.073 92.58C485.172 92.5703 485.272 92.5868 485.363 92.6277C485.454 92.6687 485.532 92.7328 485.59 92.8135C485.649 92.8943 485.685 92.9889 485.695 93.088C485.706 93.1871 485.69 93.2872 485.649 93.3783L485.709 93.1672Z" fill="#C234E2"/>
<path d="M463.749 21.4052C464.002 21.0915 464.17 20.746 464.296 20.7735C464.429 20.7773 464.558 20.8195 464.668 20.895C464.778 20.9704 464.863 21.0759 464.915 21.1988C464.89 21.3257 464.84 21.4461 464.767 21.5526C464.694 21.6591 464.599 21.7493 464.489 21.8175C464.489 21.8175 464.095 21.573 463.749 21.4052Z" fill="#C234E2"/>
<path d="M324.547 68.0126L323.798 67.5193L324.515 68.0979L324.547 68.0126Z" fill="#C234E2"/>
<path d="M469.209 89.3724L469.286 89.3232L469.128 89.3811L469.209 89.3724Z" fill="#C234E2"/>
<path d="M479.736 42.2499L479.538 42.3121L479.785 42.3266L479.736 42.2499Z" fill="#C234E2"/>
<path d="M476.338 56.7912C478.134 56.1146 480.014 55.6203 481.773 54.8252C483.782 54.22 485.944 54.378 487.845 55.269C489.384 55.5102 489.769 57.3734 489.227 59.0351C487.72 62.7601 485.077 65.9149 481.674 68.0503C480.14 69.2405 478.694 70.5392 477.346 71.9364C476.896 72.3414 476.571 72.8668 476.41 73.4505C476.248 74.0343 476.258 74.652 476.436 75.2307C477.096 75.3341 477.924 75.8019 478.636 75.5752C485.016 74.2527 491.182 72.0518 496.957 69.0353C499.46 67.5351 501.836 65.8347 504.064 63.9505C505.646 62.6007 507.472 61.5669 509.443 60.9052C512.588 59.473 515.928 58.5151 519.354 58.0626C521.275 57.7067 523.046 56.7879 524.444 55.4228C525.427 54.6649 526.492 54.0191 527.619 53.4973C528.112 53.2903 528.641 53.1841 529.176 53.1849C529.71 53.1856 530.239 53.2934 530.732 53.5017C531.224 53.7101 531.67 54.0149 532.043 54.3982C532.416 54.7814 532.708 55.2355 532.903 55.7334C533.107 56.2622 533.168 56.8353 533.08 57.3952C532.993 57.9551 532.759 58.482 532.403 58.9231C531.523 60.1757 530.224 61.0716 528.74 61.4482C525.693 62.4557 522.809 63.9021 520.179 65.7419C517.207 67.8162 515.114 70.9231 514.307 74.4569C514.146 75.1255 514.04 75.8059 513.988 76.4917C513.727 78.2328 512.895 79.8379 511.623 81.0559C510.352 82.2739 508.713 83.036 506.962 83.2229C505.317 83.3986 503.702 83.7898 502.16 84.3865C500.167 85.3442 498.373 86.6689 496.871 88.2911C495.677 89.4638 494.413 90.5641 493.088 91.5862C491.912 92.4214 490.947 93.5187 490.268 94.7912C489.59 96.0638 489.217 97.4768 489.179 98.9184C489.935 100.163 491.15 101.061 492.562 101.42C493.398 101.781 494.086 102.416 494.513 103.22C494.94 104.024 495.081 104.95 494.911 105.845C494.793 107.228 494.448 108.583 493.889 109.854C493.106 111.094 492.757 112.558 492.895 114.017C493.034 115.476 493.653 116.848 494.654 117.918C495.147 118.592 495.562 119.318 495.893 120.084C496.629 121.346 496.907 122.822 496.681 124.265C496.455 125.707 495.739 127.028 494.653 128.004C492.211 131.002 492.169 132.347 494.112 135.412C494.557 136.12 494.95 136.86 495.287 137.625C495.624 138.52 495.819 139.464 495.863 140.42C495.969 141.816 495.673 143.214 495.01 144.447C494.348 145.681 493.347 146.7 492.124 147.384C490.504 148.321 489.146 149.652 488.177 151.253C487.207 152.854 486.657 154.674 486.577 156.544C486.204 158.874 485.582 161.156 484.722 163.353C483.693 165.645 482.081 167.626 480.047 169.1C476.942 171.924 474.479 175.381 472.825 179.238C470.555 184.822 466.449 189.466 461.185 192.402C457.207 194.418 453.63 197.141 450.629 200.44C449.228 201.998 447.517 203.247 445.604 204.104C444.513 204.687 443.481 205.375 442.522 206.157C439.54 208.432 436.236 210.251 432.719 211.552C430.814 212.097 428.868 212.49 426.901 212.725C425.512 212.959 424.149 213.027 422.824 213.214C422.064 215.81 421.924 218.548 422.417 221.207C422.525 222.02 422.585 222.838 422.597 223.658C422.566 224.11 422.42 224.547 422.174 224.927C421.928 225.308 421.589 225.619 421.19 225.833C420.79 226.046 420.343 226.155 419.89 226.148C419.437 226.141 418.993 226.019 418.6 225.793C417.544 225.115 416.611 224.264 415.839 223.276C414.155 221.435 412.599 219.5 411.098 217.575C410.418 216.683 409.424 216.083 408.317 215.9C406.667 215.642 405.116 215.117 403.474 214.804C402.379 214.616 401.263 214.593 400.161 214.735C397.731 215.144 395.312 215.835 392.873 216.299C388.929 217.231 384.807 217.092 380.935 215.894C379.506 215.67 378.035 214.989 376.254 214.485C376.239 215.053 376.263 215.621 376.326 216.186C376.64 217.419 377.136 218.567 377.34 219.782C377.556 221.091 377.348 222.434 376.747 223.617C376.147 224.8 375.184 225.76 374 226.358C372.714 226.919 371.282 227.056 369.912 226.75C368.543 226.445 367.305 225.712 366.379 224.657C365.43 223.628 364.764 222.37 364.445 221.007C364.125 219.645 364.163 218.222 364.554 216.878C364.666 216.163 364.787 215.393 364.968 214.238L362.613 214.884L361.046 215.54C359.665 216.178 358.169 216.527 356.648 216.564C355.128 216.602 353.616 216.327 352.206 215.758C350.796 215.189 349.517 214.337 348.449 213.254C347.381 212.172 346.546 210.882 345.996 209.464C343.926 205.541 341.152 202.032 337.813 199.111C336.731 198.063 335.837 196.837 335.169 195.486C334.099 193.684 333.275 191.752 332.387 189.867C331.784 188.52 330.813 187.371 329.586 186.551C328.359 185.731 326.926 185.273 325.451 185.231C323.691 184.955 321.931 184.679 319.9 184.699C318.651 184.654 317.418 184.992 316.367 185.667C314.206 186.952 311.814 187.803 309.327 188.171C307.21 188.469 305.053 188.071 303.183 187.036C301.312 186.001 299.829 184.386 298.957 182.434C298.461 181.578 298.175 180.617 298.124 179.629C298.073 178.641 298.258 177.656 298.663 176.753C300.017 173.867 301.527 171.061 302.935 168.182C303.324 167.628 303.661 167.04 303.943 166.424C305.521 162.108 305.299 161.002 301.548 158.33C300.792 157.761 300.117 157.036 299.378 156.357C298.146 155.217 296.629 154.433 294.987 154.086C293.344 153.74 291.639 153.844 290.052 154.389C289.113 154.675 288.193 155.02 287.298 155.423C285.581 156.036 283.71 156.066 281.975 155.509C280.239 154.952 278.735 153.839 277.695 152.341C277.198 151.341 276.796 150.297 276.493 149.223C277.336 147.439 278.225 145.719 279.004 143.982C279.201 143.649 279.302 143.269 279.297 142.882C279.293 142.496 279.183 142.118 278.978 141.79C278.774 141.462 278.484 141.196 278.14 141.021C277.795 140.846 277.409 140.769 277.024 140.798C276.124 140.688 275.212 140.784 274.355 141.079C273.498 141.375 272.721 141.862 272.08 142.503C270.746 143.713 269.345 144.848 267.886 145.903C265.719 147.405 263.254 148.422 260.658 148.884C259.38 149.195 258.034 149.044 256.858 148.457C255.681 147.871 254.75 146.887 254.229 145.68C253.842 144.644 253.538 143.579 253.319 142.495C252.82 141.008 251.988 140.202 250.51 140.646C249.863 140.89 249.156 140.926 248.487 140.751C247.818 140.575 247.22 140.197 246.776 139.667C246.25 139.103 245.846 138.435 245.592 137.707C245.337 136.978 245.237 136.205 245.298 135.435C245.437 134.464 245.861 133.556 246.517 132.826C247.173 132.096 248.031 131.577 248.982 131.336C250.567 130.833 252.245 130.691 253.892 130.922C254.393 132.207 255.352 133.26 256.585 133.879C256.823 134.052 257.098 134.169 257.389 134.221C257.679 134.273 257.977 134.258 258.261 134.178C258.545 134.097 258.807 133.954 259.027 133.757C259.247 133.561 259.42 133.317 259.532 133.044L253.82 131.023C254.061 129.483 252.477 128.446 252.863 126.704C253.008 125.457 253.499 124.275 254.28 123.292C255.061 122.31 256.101 121.565 257.283 121.142C259.103 120.253 261.102 119.795 263.127 119.803C264.82 119.884 266.479 119.318 267.77 118.22C268.048 117.938 268.208 117.56 268.217 117.164C268.165 116.966 268.07 116.782 267.939 116.625C267.808 116.468 267.643 116.342 267.458 116.256C266.402 115.725 265.225 115.483 264.045 115.556C262.866 115.629 261.727 116.013 260.745 116.669C259.837 117.313 258.864 117.86 257.841 118.299C257.533 118.468 257.19 118.564 256.838 118.578C256.487 118.593 256.137 118.526 255.816 118.383C255.495 118.24 255.211 118.025 254.987 117.754C254.762 117.483 254.604 117.164 254.523 116.822C254.296 115.795 254.139 114.754 254.053 113.706C255.832 111.642 258.335 110.34 261.046 110.068C261.816 110.189 262.701 109.933 263.523 109.724C264.245 109.467 264.854 108.965 265.246 108.306C265.637 107.647 265.786 106.872 265.665 106.115C265.276 103.223 264.201 100.466 262.53 98.0741C262.144 97.408 261.577 96.8653 260.895 96.5091C260.212 96.1529 259.443 95.9978 258.676 96.0618L256.572 96.1831C251.34 96.4907 248.358 92.8684 250.077 88.0104C251.076 84.9851 251.054 81.715 250.013 78.7038C250.073 78.3188 249.601 77.7377 249.745 77.535C250.658 76.3821 250.133 75.0602 250.314 73.9053C250.274 72.714 250.52 71.5304 251.032 70.4538C251.543 69.3772 252.306 68.4388 253.255 67.7175C254.544 66.6799 255.926 65.7694 257.308 64.859C258.69 63.9486 260.072 63.0382 261.362 62.0006C261.732 61.801 262.05 61.5186 262.293 61.1754C262.536 60.8323 262.696 60.4376 262.761 60.0224C262.826 59.6071 262.794 59.1824 262.668 58.7815C262.542 58.3806 262.325 58.0142 262.034 57.7111L261.704 57.6594C260.301 56.5157 259.265 54.9852 258.724 53.2578C258.183 51.5305 258.161 49.6823 258.662 47.9427C258.726 47.197 258.75 46.4482 258.731 45.6999C257.301 45.476 256.146 45.2951 254.937 45.1056C253.542 45.0272 252.195 44.5641 251.047 43.7677C249.899 42.9714 248.994 41.8727 248.431 40.5936C247.257 38.3812 245.899 36.253 244.962 33.9652C244.307 32.0711 243.858 30.1117 243.623 28.1213C243.701 27.6263 244.169 26.7981 244.678 26.427C245.287 25.9649 246.002 25.6613 246.758 25.5437C247.514 25.4261 248.288 25.498 249.009 25.7531C250.783 26.3378 252.587 26.8272 254.414 27.2193C255.789 27.5022 257.198 27.59 258.598 27.4803C260.656 27.2954 261.204 26.3108 261.1 24.0971C260.996 21.8835 261.082 18.4599 261.275 15.7857C261.539 14.0849 261.215 12.345 260.357 10.8528C259.303 10.5783 258.288 10.1732 257.335 9.64701C256.485 9.21361 255.769 8.55602 255.266 7.74541C253.603 4.32985 255.192 2.09959 258.393 1.81198C259.792 1.63693 261.205 1.99919 262.347 2.82564L264.421 4.33366C266.148 4.09709 266.977 2.76196 268 1.62629C270.007 -1.02971 271.377 -4.11174 272.003 -7.38152C272.129 -7.63679 272.174 -7.92473 272.132 -8.20644C270.924 -10.9309 270.848 -14.0418 268.701 -16.5191C268.204 -17.0114 267.78 -17.571 267.44 -18.1815C266.911 -18.9809 266.553 -19.881 266.389 -20.8252C266.194 -21.7176 266.268 -22.6478 266.602 -23.4981C266.936 -24.3484 267.514 -25.0807 268.264 -25.6024C268.931 -25.9901 269.685 -26.2024 270.456 -26.2196C271.228 -26.2367 271.99 -26.0582 272.674 -25.7005C273.283 -25.5103 273.847 -25.1991 274.332 -24.7855C274.817 -24.3719 275.214 -23.8645 275.498 -23.2937C275.782 -22.7229 275.948 -22.1006 275.986 -21.4641C276.024 -20.8275 275.932 -20.19 275.717 -19.5896C275.724 -19.4585 275.704 -19.3274 275.657 -19.2047C275.089 -17.8399 274.999 -16.3237 275.4 -14.9011C275.801 -13.4785 276.67 -12.2327 277.866 -11.365C278.091 -11.1147 278.37 -10.9186 278.682 -10.7917C278.994 -10.6648 279.331 -10.6103 279.667 -10.6323C282.481 -11.1418 285.135 -12.3092 287.413 -14.0394C288.544 -14.8697 289.319 -16.0965 289.585 -17.4742C289.791 -18.7941 290.007 -20.1689 290.222 -21.5438C290.412 -23.4688 291.336 -25.2465 292.804 -26.5069C294.271 -27.7674 296.168 -28.4135 298.099 -28.3109C299.336 -28.2204 300.506 -27.7197 301.426 -26.8883C302.093 -26.3789 302.648 -25.738 303.056 -25.0052C303.465 -24.2725 303.718 -23.4635 303.801 -22.6287C304.103 -20.3945 304.751 -18.2211 305.722 -16.1864C306.808 -15.5656 307.987 -14.8176 309.191 -14.2346C310.755 -13.3123 312.413 -12.5615 314.137 -11.9951C318.514 -10.8026 322.981 -9.82134 327.392 -8.84874C328.492 -8.67649 329.592 -8.50423 330.692 -8.33198C331.966 -8.10324 333.28 -8.32593 334.408 -8.9617C335.536 -9.59747 336.407 -10.6066 336.872 -11.8153C338.671 -15.8246 339.816 -20.0966 340.262 -24.4686C340.321 -25.5646 340.491 -26.6517 340.77 -27.7133C341.215 -28.5564 341.367 -29.524 341.2 -30.463C341.009 -31.0698 341.011 -31.7213 341.207 -32.3268C341.403 -32.9323 341.782 -33.4617 342.293 -33.8415C342.756 -34.2761 343.629 -34.8155 343.988 -34.5902C344.648 -34.151 345.159 -33.5206 345.452 -32.7834C345.452 -32.7834 345.331 -32.0135 345.262 -31.5735C344.642 -27.6139 343.692 -23.706 343.017 -19.7551C342.908 -18.5112 342.938 -17.2591 343.108 -16.0221C343.163 -14.2106 343.281 -12.4455 343.292 -10.359C343.303 -8.27258 345.03 -6.70626 347.246 -7.54247C350.515 -8.66296 353.597 -10.2697 356.387 -12.3085C357.327 -13.1336 358.081 -14.1485 358.6 -15.2862C359.926 -17.7308 361.758 -19.8641 363.975 -21.5437C364.492 -21.9697 365.23 -22.3613 365.434 -22.9491C366.444 -25.439 368.955 -26.0036 370.846 -27.2851C372.276 -28.0451 373.804 -28.6022 375.388 -28.9403L376.96 -28.1869C377.533 -27.9195 378.045 -27.5372 378.464 -27.0638C378.884 -26.5903 379.202 -26.0358 379.398 -25.4346C379.594 -24.8334 379.665 -24.1983 379.606 -23.5686C379.547 -22.9389 379.359 -22.3281 379.054 -21.7739C378.477 -20.0456 377.287 -18.5886 375.709 -17.6777C374.51 -16.9678 373.353 -16.1896 372.245 -15.3467C370.667 -14.2122 369.359 -12.7431 368.416 -11.0446C367.624 -9.59085 366.935 -8.06492 366.109 -6.39123C366.871 -4.18701 368.337 -2.29446 370.28 -1.00518C370.59 -0.670077 370.966 -0.403189 371.385 -0.221569C371.804 -0.0399495 372.255 0.0524331 372.712 0.0496819C373.168 0.0469326 373.619 -0.0509019 374.035 -0.237555C374.452 -0.424209 374.825 -0.695611 375.13 -1.03443C376.257 -1.85597 377.336 -2.74038 378.362 -3.68346C379.747 -4.86686 381.451 -5.61455 383.259 -5.83255C385.068 -6.05056 386.901 -5.72914 388.527 -4.90872C389.565 -4.4694 390.444 -3.72562 391.05 -2.77565C391.656 -1.82567 391.959 -0.714243 391.92 0.411725C392.069 2.34576 391.487 4.26547 390.288 5.79056C389.256 7.11936 388.354 8.54405 387.594 10.045C386.965 11.0526 386.658 12.2279 386.714 13.4143C386.769 14.6007 387.185 15.7419 387.906 16.6861C389.245 18.6263 391.166 20.0911 393.392 20.8695C394.682 21.4025 396.003 21.8541 397.35 22.2217C398.967 22.6053 400.486 23.323 401.809 24.3287C402.472 24.7706 403.335 25.0184 404.062 25.4139C404.724 25.8173 405.51 25.9686 406.275 25.8401C407.04 25.7116 407.733 25.3119 408.228 24.7142C409.835 23.3521 411.077 21.6096 411.839 19.6454C412.568 17.5059 413.446 15.5022 414.221 13.4264C414.975 11.7072 415.469 9.88584 415.688 8.0217C415.787 6.91882 416.168 5.85998 416.794 4.94687C417.421 4.03375 418.271 3.29707 419.265 2.8076C420.258 2.31813 421.36 2.09231 422.466 2.15186C423.572 2.2114 424.644 2.5543 425.579 3.1476C426.193 3.49312 426.69 4.01602 427.003 4.64805C427.316 5.28007 427.431 5.99185 427.334 6.6904C427.133 10.5905 426.113 14.4046 424.341 17.8847C423.818 18.7043 423.241 19.5153 422.773 20.3436C421.533 22.4986 420.101 24.5373 418.495 26.4348C417.164 28.5462 415.646 30.5336 413.959 32.3729C412.568 33.5665 411.666 35.2303 411.424 37.0467C411.2 38.4766 412.191 39.7023 413.533 39.4055C418.054 38.7108 422.638 38.5216 427.2 38.8414C431.921 38.8296 436.6 39.7155 440.99 41.4517C445.704 43.1217 450.157 45.4505 454.218 48.3688C455.871 49.6118 457.184 51.2514 458.035 53.136C458.792 54.7759 459.605 56.4244 460.489 57.9715C460.895 58.7928 461.577 59.4449 462.416 59.8132C463.255 60.1816 464.197 60.2426 465.076 59.9857C467.769 59.3369 470.538 58.9254 473.194 58.1581C474.314 57.6794 475.374 57.07 476.351 56.3426L476.338 56.7912ZM263.841 132.874C265.482 134.217 267.543 134.939 269.663 134.913C271.049 135.051 272.436 134.665 273.551 133.831C273.785 133.607 273.963 133.33 274.07 133.023C274.176 132.717 274.209 132.39 274.165 132.068C274.129 131.792 274.034 131.527 273.886 131.291C273.739 131.054 273.542 130.852 273.31 130.699C273.078 130.545 272.815 130.443 272.54 130.399C272.265 130.355 271.984 130.371 271.715 130.445L263.841 132.874Z" fill="black"/>
<path d="M224.363 73.7284C222.435 75.9896 219.973 77.7343 217.201 78.8045C215.996 79.3482 214.687 79.6189 213.365 79.597C212.044 79.5752 210.744 79.2614 209.558 78.6781C206.764 77.4296 204.317 75.5185 202.429 73.1106C201.471 71.8146 200.805 70.3259 200.478 68.7474C200.151 67.1689 200.171 65.5384 200.537 63.9683C200.911 62.6428 201.686 61.4652 202.755 60.5971C204.029 59.2984 205.616 58.3502 207.363 57.8442C209.11 57.3381 210.959 57.2912 212.729 57.7081C214.791 57.9277 216.798 58.509 218.658 59.4254C220.391 60.3102 221.906 61.5673 223.096 63.1066C223.615 63.8353 224.311 64.4189 225.119 64.8019C225.927 65.1849 226.819 65.3544 227.712 65.2943C231.008 65.3209 234.292 65.6843 237.515 66.3789C241.35 67.4303 241.474 66.9989 243.106 70.9731C242.553 71.9243 241.678 72.6471 240.64 73.0112C239.602 73.3754 238.468 73.3571 237.442 72.9596C236.738 72.694 235.974 72.6291 235.235 72.7721C234.497 72.9151 233.812 73.2603 233.258 73.7693C232.766 74.1664 232.188 74.4446 231.57 74.5824C230.953 74.7202 230.312 74.7138 229.697 74.5638C227.946 74.2332 226.122 74.004 224.363 73.7284Z" fill="black"/>
<path d="M247.821 106.363C247.683 107.242 247.861 108.623 247.756 110.015C247.784 110.815 247.653 111.614 247.368 112.363C247.084 113.112 246.653 113.797 246.1 114.377C245.547 114.957 244.884 115.421 244.15 115.741C243.415 116.061 242.624 116.231 241.823 116.241C240.925 116.343 240.016 116.225 239.174 115.896C238.332 115.568 237.582 115.04 236.99 114.357C236.74 114.017 236.57 113.625 236.494 113.209C235.819 109.792 236.374 106.247 238.061 103.2C238.463 102.231 239.194 101.435 240.125 100.952C241.056 100.469 242.128 100.33 243.151 100.56C244.141 100.715 245.076 100.862 246.011 101.008C246.457 101.059 246.886 101.206 247.27 101.438C247.654 101.67 247.984 101.982 248.236 102.354C248.488 102.725 248.657 103.146 248.731 103.588C248.806 104.031 248.784 104.484 248.667 104.917C248.294 105.141 248.069 105.5 247.821 106.363Z" fill="black"/>
<path d="M245.239 54.8538C243.536 53.8547 241.025 52.6163 238.795 51.0275C238.344 50.6802 237.995 50.218 237.784 49.6893C237.573 49.1606 237.508 48.585 237.596 48.0226C237.684 47.4602 237.922 46.9319 238.284 46.493C238.647 46.0541 239.121 45.7208 239.656 45.5281C240.201 45.4193 240.766 45.5079 241.251 45.7779L247.935 49.8672C248.25 50.1309 248.525 50.4397 248.75 50.7835C249.547 51.8098 250.217 52.9289 249.506 54.2263C248.796 55.5236 247.505 55.4905 245.239 54.8538Z" fill="black"/>
<path d="M433.635 32.6387C433.87 31.4732 434.425 30.3961 435.237 29.5282C436.05 28.6603 437.088 28.0359 438.236 27.7249C439 27.3739 439.87 27.3295 440.666 27.6009C441.462 27.8724 442.124 28.439 442.515 29.1838C442.895 29.8518 443.037 30.6288 442.918 31.388C442.799 32.1472 442.426 32.8436 441.86 33.3634C440.356 34.9986 438.339 36.0736 436.143 36.412C434.407 36.7036 433.213 35.3334 433.635 32.6387Z" fill="black"/>
<path d="M207.209 33.629C207.399 34.1221 207.42 34.6641 207.269 35.1704C207.118 35.6768 206.805 36.1191 206.376 36.4284C203.874 38.2118 200.892 39.198 197.82 39.2577C197.408 39.2783 196.996 39.2138 196.61 39.0683C196.134 38.964 195.698 38.7261 195.353 38.3826C195.007 38.0391 194.767 37.6042 194.66 37.1289C194.606 36.648 194.699 36.1619 194.927 35.7349C195.155 35.3078 195.506 34.9599 195.936 34.737C197.606 33.7039 199.49 33.0668 201.444 32.8748C203.398 32.6827 205.37 32.9407 207.209 33.629Z" fill="black"/>
<path d="M476.36 56.624C474.93 56.4 473.446 56.1675 471.961 55.935C471.767 55.8685 471.592 55.7564 471.45 55.6082C471.309 55.46 471.205 55.2799 471.147 55.0832C471.09 54.8865 471.08 54.6788 471.12 54.4777C471.159 54.2765 471.246 54.0878 471.374 53.9273C472.093 52.9165 473.129 52.1748 474.317 51.82C475.506 51.4651 476.779 51.5174 477.935 51.9686C478.242 52.1212 478.479 52.3863 478.596 52.7089C478.714 53.0315 478.702 53.3868 478.565 53.7013C477.834 54.77 476.993 55.8216 476.207 56.8817L476.36 56.624Z" fill="black"/>
<path d="M453.555 44.6562C453.127 44.8709 452.8 45.1578 452.516 45.1697C452.233 45.1816 452.082 44.7072 451.841 44.4442C451.601 44.1812 452.44 43.8618 452.723 43.8499C453.007 43.8379 453.166 44.2573 453.555 44.6562Z" fill="black"/>
<path d="M562.76 76.8156C564.838 75.0263 567.135 73.5101 569.597 72.3037C569.906 72.1622 570.249 72.1148 570.585 72.1673C570.921 72.2199 571.234 72.3702 571.484 72.5993C571.287 72.958 571.063 73.3009 570.813 73.6252C569.54 75.3336 567.938 76.7699 566.101 77.8496C564.946 78.4714 564.233 78.3598 562.76 76.8156Z" fill="#C234E2"/>
<path d="M526.135 46.7056C528.113 44.7897 528.76 44.8545 530.413 46.6459C529.108 47.7551 527.882 47.1981 526.135 46.7056Z" fill="#C234E2"/>
<path d="M520.949 30.4259L521.562 30.7043C521.847 30.7489 521.837 31.5136 521.417 31.6303C521.104 31.7891 520.767 31.8964 520.419 31.9482C520.287 31.9666 520.152 31.9587 520.023 31.9247C519.894 31.8908 519.773 31.8315 519.667 31.7504C519.561 31.6693 519.472 31.568 519.405 31.4523C519.338 31.3366 519.295 31.2088 519.279 31.0764C519.351 30.6134 519.81 30.2474 520.451 30.3478L520.949 30.4259Z" fill="#C234E2"/>
<path d="M551.817 5.26587C551.817 5.26587 551.789 5.44406 551.611 5.41614L551.252 5.14087L551.68 5.20786C551.68 5.20786 551.787 5.22465 551.817 5.26587Z" fill="#C234E2"/>
<path d="M567.229 28.0047C567.229 28.0047 567.229 28.0047 567.015 27.9712L566.801 27.9377C566.801 27.9377 566.979 27.9656 567.015 27.9712C567.051 27.9768 567.163 27.9579 567.229 28.0047Z" fill="#C234E2"/>
<path d="M457.99 -97.3638C458.257 -96.9204 458.49 -96.457 458.685 -95.9779C459.25 -93.9921 459.766 -92.16 460.303 -89.9961C460.482 -88.4591 461.12 -87.0116 462.133 -85.8418C462.172 -85.8133 462.205 -85.7772 462.23 -85.7357C462.255 -85.6942 462.271 -85.6481 462.278 -85.6002C463.889 -82.4056 465.161 -79.0513 466.074 -75.5919C466.327 -74.1754 466.708 -72.7846 467.211 -71.4367C467.858 -70.2427 468.018 -68.8449 467.658 -67.5355C467.658 -67.5355 467.591 -67.1081 467.586 -67.0725C468.447 -66.2809 467.984 -65.1858 468.296 -64.1517C468.728 -64.1126 469.164 -64.143 469.587 -64.2415C470.394 -64.5489 471.259 -64.6713 472.119 -64.5997C472.98 -64.5282 473.813 -64.2644 474.558 -63.8279C475.361 -63.4503 476.134 -63.0121 476.87 -62.5171C477.138 -62.3497 477.437 -62.2382 477.749 -62.1893C478.061 -62.1404 478.38 -62.1551 478.686 -62.2326C479.833 -62.4576 480.919 -62.9225 481.874 -63.5968C482.828 -64.2711 483.63 -65.1395 484.225 -66.1451C484.558 -66.6293 484.742 -67.1998 484.757 -67.7871C484.771 -68.3745 484.614 -68.9532 484.305 -69.4529C484.017 -69.9112 483.762 -70.3901 483.544 -70.8856C483.146 -71.5483 483.026 -72.3421 483.212 -73.0929C483.398 -73.8436 483.874 -74.4898 484.536 -74.8898C485.195 -75.4461 486.032 -75.7477 486.894 -75.7398C487.757 -75.7319 488.588 -75.4152 489.236 -74.847C490.373 -74.1116 491.196 -72.9818 491.549 -71.6752C491.749 -71.0835 491.751 -70.443 491.555 -69.8499C491.355 -69.2659 491.258 -68.6511 491.271 -68.0336C491.131 -67.1433 491.46 -66.2161 491.54 -65.3279C491.62 -64.4397 491.544 -63.7218 491.545 -63.0284C491.769 -62.7213 492.082 -62.4911 492.442 -62.3694C492.802 -62.2477 493.191 -62.2404 493.555 -62.3487L497.295 -62.9306C500.233 -63.2593 503.204 -63.1506 506.111 -62.6081C507.628 -62.353 509.09 -61.8402 510.434 -61.0918C511.857 -60.3946 513.258 -59.5549 514.665 -58.7509C514.914 -58.7118 515.113 -58.3522 515.333 -58.3544C516.932 -58.1013 518.457 -57.5013 519.801 -56.5965C520.466 -56.2309 521.224 -56.0697 521.98 -56.133C522.736 -56.1963 523.457 -56.4812 524.052 -56.9522C524.787 -58.1507 525.446 -59.3247 526.134 -60.4575C526.576 -61.091 527.17 -61.6034 527.861 -61.9477C528.552 -62.292 529.319 -62.4573 530.091 -62.4283C530.595 -62.4203 531.084 -62.2594 531.495 -61.9671C531.905 -61.6748 532.217 -61.2648 532.389 -60.7914C532.756 -60.1607 532.923 -59.4335 532.867 -58.706C532.812 -57.9785 532.537 -57.2848 532.079 -56.7168C531.372 -55.6645 530.474 -54.7533 529.433 -54.0299C528.651 -53.4451 527.926 -52.7892 527.265 -52.0706C526.993 -51.7575 526.835 -51.3615 526.816 -50.9471C526.798 -50.5326 526.92 -50.1241 527.163 -49.7879C527.34 -49.4709 527.617 -49.2209 527.95 -49.0764C528.284 -48.9319 528.655 -48.9009 529.008 -48.9881C529.987 -49.1483 530.952 -49.3877 531.893 -49.7039C532.323 -49.8338 532.777 -49.8652 533.221 -49.7957C533.665 -49.7261 534.088 -49.5575 534.457 -49.3023C534.749 -49.1765 535.012 -48.9935 535.232 -48.7643C535.452 -48.5351 535.623 -48.2641 535.737 -47.9676C535.85 -47.671 535.903 -47.3547 535.892 -47.0374C535.881 -46.72 535.807 -46.408 535.674 -46.1198C535.26 -45.133 534.758 -44.1859 534.173 -43.29C533.828 -42.7236 533.43 -42.2752 533.091 -41.7444C532.753 -41.2137 532.89 -40.4624 533.485 -40.2963C534.205 -40.0807 534.867 -39.7034 535.419 -39.1932C535.972 -38.683 536.4 -38.0534 536.672 -37.3524C538.065 -37.3898 539.298 -37.3426 540.553 -37.4379C541.123 -37.4572 541.689 -37.3413 542.205 -37.0995C542.721 -36.8577 543.173 -36.4971 543.522 -36.0471C543.872 -35.5971 544.11 -35.0705 544.217 -34.5107C544.324 -33.9509 544.296 -33.3737 544.137 -32.8266C544.018 -32.2908 543.748 -31.8007 543.357 -31.4152C542.967 -31.0297 542.473 -30.7653 541.936 -30.6537C541.148 -30.4601 540.337 -30.3783 539.526 -30.4108C538.625 -30.396 537.755 -30.0832 537.051 -29.5213C537.408 -28.5743 537.695 -27.6025 537.91 -26.6138C537.996 -25.5942 537.994 -24.569 537.904 -23.5497L539.792 -23.2541C541.616 -22.786 543.303 -22.3759 545.211 -21.7486C545.824 -21.5855 546.383 -21.2636 546.832 -20.8153C547.281 -20.367 547.603 -19.8083 547.767 -19.1955C547.918 -18.813 547.986 -18.403 547.967 -17.9924C547.948 -17.5817 547.843 -17.1797 547.658 -16.8125C547.473 -16.4454 547.213 -16.1215 546.894 -15.8619C546.575 -15.6023 546.205 -15.413 545.808 -15.3063C544.509 -14.9873 543.173 -14.8408 541.836 -14.8703C540.618 -14.9223 539.404 -14.7144 538.274 -14.2605C538.609 -12.6755 538.885 -11.1729 539.207 -9.73588C539.351 -9.23036 539.557 -8.74466 539.82 -8.28989C540.141 -7.5463 540.789 -6.78809 540.754 -6.10027C540.682 -4.66747 541.074 -3.24972 541.872 -2.05747C542.269 -1.33868 542.409 -0.505845 542.269 0.303288C542.062 1.621 541.856 2.93875 541.644 4.29208C541.432 5.64541 541.17 7.31923 540.936 8.81501C540.701 10.3108 541.291 11.2059 542.945 11.8297C545.114 12.445 547.146 13.4691 548.93 14.847C550.25 15.8642 551.304 17.1862 552.001 18.6998C552.698 20.2133 553.018 21.8733 552.933 23.5375C552.836 25.3064 552.331 27.0288 551.457 28.5695C550.582 30.1103 549.363 31.4274 547.894 32.4175C546.38 33.5704 544.505 34.1438 542.605 34.0339C541.979 33.9466 541.344 33.9329 540.714 33.9932C539.23 34.0671 537.751 33.7831 536.399 33.1651C535.048 32.5471 533.866 31.6132 532.951 30.4422C532.126 29.4911 531.37 28.4825 530.687 27.4241C530.412 27.089 530.07 26.7071 529.573 26.8483C529.301 26.8931 529.05 27.0263 528.861 27.2273C528.671 27.4283 528.553 27.6861 528.524 27.9609C528.469 28.4949 528.47 29.0332 528.527 29.5669C528.64 31.6413 528.315 33.7163 527.574 35.6569C527.294 36.1652 527.163 36.7415 527.195 37.3205C527.227 37.8996 527.421 38.4581 527.754 38.9325C527.918 39.225 528.041 39.539 528.119 39.8654C528.143 41.1097 526.966 41.3998 526.339 42.1408L526.178 43.1736C526.161 44.1248 525.832 45.0442 525.24 45.7892C524.648 46.5343 523.828 47.0635 522.905 47.295C521.642 47.7692 520.292 47.9683 518.946 47.8791C517.624 47.7554 516.298 48.0592 515.161 48.7458C513.652 49.5311 512.088 50.1983 510.277 51.0458C510.238 51.2951 510.16 51.7937 509.868 52.2588C509.465 53.7513 508.634 55.0927 507.476 56.1168C506.727 56.7373 506.218 57.5994 506.036 58.5548C505.807 59.4993 505.389 60.3877 504.808 61.1667C504.227 61.9458 503.495 62.5993 502.655 63.088C501.815 63.5768 500.885 63.8906 499.921 64.0108C498.956 64.131 497.977 64.0549 497.043 63.7872C496.517 63.6883 496.003 63.5344 495.51 63.3281C492.881 62.3881 490.146 61.776 487.367 61.5055C486.524 61.3452 485.653 61.4269 484.855 61.7409C484.057 62.055 483.364 62.5887 482.856 63.2803C482.671 63.4695 482.505 63.6754 482.358 63.8956C480.481 66.7824 477.833 69.0854 474.713 70.5431C473.561 71.0517 472.597 71.9089 471.958 72.994C470.684 75.305 468.633 77.0908 466.169 78.035C464.63 78.779 463.036 79.4051 461.472 80.0723C460.907 80.3613 460.287 80.5277 459.653 80.5605C459.019 80.5932 458.385 80.4917 457.793 80.2625C456.951 79.9488 456.055 79.8084 455.158 79.8498C453.362 79.897 451.451 80.218 449.774 80.2107C446.43 80.2068 443.138 79.378 440.191 77.7977C438.47 76.7821 437.146 75.2107 436.437 73.3422C435.852 71.9602 434.838 70.8032 433.544 70.0421C432.251 69.2811 430.747 68.9563 429.254 69.1158C428.401 69.0899 427.551 69.2472 426.763 69.5769C425.975 69.9066 425.267 70.4012 424.686 71.0275C422.569 73.1348 420.064 74.8118 417.308 75.9655C415.81 76.5614 414.25 76.9901 412.657 77.2438C411.601 77.4424 410.533 77.5677 409.46 77.6189C405.712 78.0343 402.008 78.7725 398.387 79.8254C397.511 80.0225 396.624 80.1639 395.73 80.2485C394.923 80.3328 394.107 80.2456 393.335 79.9928C392.564 79.7399 391.854 79.3271 391.253 78.7812C390.567 78.3378 390.03 77.6982 389.712 76.9457C389.394 76.1931 389.309 75.3623 389.469 74.5611C389.553 74.0269 389.637 73.4927 389.72 72.9585C389.838 72.2545 390.126 71.5898 390.558 71.0218C390.99 70.4538 391.554 69.9996 392.201 69.6983C392.909 69.3713 393.58 68.8195 394.263 68.4157C395.03 67.948 395.838 67.5494 396.675 67.2246C398.558 66.6353 400.299 65.6662 401.792 64.3771C402.775 63.5815 403.472 62.4862 403.776 61.258C404.55 58.5018 406.386 56.1649 408.88 54.7599L411.384 53.2182C411.696 53.0432 411.995 52.8462 412.279 52.6286C412.735 52.3576 413.125 51.9894 413.422 51.5503C413.719 51.1112 413.916 50.612 413.998 50.0882C414.08 49.5645 414.045 49.0291 413.897 48.5202C413.748 48.0113 413.489 47.5414 413.138 47.1441C411.71 45.3149 410.287 43.4502 408.982 41.5309C408.534 40.7386 408.225 39.8758 408.068 38.9796C407.821 37.9922 407.558 37.1118 406.352 36.8865C405.846 36.6894 405.384 36.3938 404.993 36.0168C404.526 35.5341 403.894 35.2452 403.224 35.2078C402.553 35.1704 401.893 35.3873 401.375 35.8152C399.796 36.618 398.494 37.8756 397.636 39.4256C397.901 41.4442 397.58 43.4967 396.71 45.3375C395.794 48.2441 394.667 51.0798 393.338 53.8218C390.924 58.5905 387.059 62.4696 382.298 64.9C378.913 66.5899 375.321 67.8305 371.614 68.5903C368.32 69.3516 368.039 69.7454 367.669 73.0442C367.606 73.7623 367.615 74.485 367.696 75.2013C367.743 75.8223 367.755 76.4454 367.732 77.0677C367.76 77.7337 367.532 78.3851 367.093 78.887C366.654 79.3889 366.039 79.7028 365.376 79.7637L363.316 78.2371C363.411 77.6316 363.489 77.1331 363.573 76.5989C363.891 74.5689 364.209 72.5388 364.348 70.4809C364.393 70.0306 364.319 69.5765 364.134 69.1635C363.949 68.7506 363.66 68.3931 363.294 68.1266L362.876 67.7692C360.652 66.4846 358.591 64.9368 356.738 63.1592C355.333 61.881 354.01 60.5427 352.511 59.3958C351.237 58.4001 349.828 57.5898 348.327 56.9891C346.673 56.3653 344.877 55.7191 343.248 55.1721C342.783 54.9932 342.28 54.9393 341.787 55.0159C341.295 55.0925 340.832 55.2968 340.443 55.6085C339.279 56.5208 337.742 56.3165 336.365 56.7212C334.988 57.1258 333.728 55.615 333.127 54.0978C332.931 53.4528 332.883 52.7717 332.987 52.1057C333.091 51.4396 333.345 50.8057 333.729 50.2515C333.985 49.6688 334.431 49.1903 334.995 48.8941C335.558 48.5979 336.205 48.5016 336.831 48.621L336.858 48.4429C336.819 46.8313 336.774 45.2553 336.699 43.6381C336.69 43.1954 336.624 42.7558 336.502 42.3302L333.881 32.506C333.309 30.3365 332.624 28.186 332.164 25.9977C331.9 24.8949 332.033 23.7345 332.539 22.7197C333.045 21.7049 333.891 20.9004 334.931 20.4471C334.875 20.8032 334.819 21.1593 334.763 21.5154C334.579 21.6845 334.404 21.8643 334.241 22.0539C334.241 22.0539 334.196 22.3389 334.174 22.4813C334.152 22.6238 334.676 22.3045 334.698 22.1621C334.694 21.9112 334.633 21.6646 334.519 21.4408C334.519 21.4408 334.84 21.4909 334.986 21.2584C335.15 21.1209 335.307 20.975 335.456 20.8212L334.813 20.5015C335.355 19.6013 336.344 19.5738 337.172 19.4116C338.001 19.2494 339.848 19.1009 341.216 18.9867C341.715 19.0648 342.293 18.8636 342.712 19.221C343.13 19.5784 343.21 19.2991 343.315 19.0965C343.42 18.894 344.199 18.5782 344.726 18.4782L350.002 17.4071C351.873 17.099 353.664 16.425 355.274 15.4234C356.394 14.7925 357.671 14.4983 358.954 14.5761C360.236 14.654 361.469 15.1006 362.503 15.8623C363.485 16.4874 364.506 17.0495 365.56 17.5451C366.47 17.915 367.436 18.1279 368.417 18.1749C370.538 18.1422 372.716 18.4469 374.857 18.5266C375.568 18.5301 376.275 18.4191 376.951 18.1979C379.188 17.4868 381.292 16.4108 383.179 15.0136C384.652 13.978 386.317 13.2465 388.076 12.8617C389.182 12.5605 390.268 12.1468 391.355 11.7331C391.931 11.6385 392.452 11.3355 392.819 10.8817C393.186 10.4279 393.373 9.85493 393.346 9.27189C393.391 9.09697 393.419 8.91807 393.429 8.7377C393.306 7.65654 393.536 6.56456 394.084 5.62467C394.633 4.68478 395.47 3.94727 396.472 3.5221C397.031 3.20186 397.493 2.73779 397.812 2.1781C398.131 1.61841 398.294 0.983559 398.284 0.339588C398.384 -0.816603 398.32 -1.98113 398.096 -3.11968C397.933 -4.08745 397.916 -5.07388 398.043 -6.04683C398.169 -7.38485 398.221 -8.72875 398.199 -10.0725C398.181 -12.52 398.087 -14.943 398.104 -17.3849C398.158 -18.193 397.921 -18.9939 397.436 -19.6423C396.454 -21.0344 395.598 -22.5116 394.88 -24.0562C394.373 -25.0114 393.588 -25.8275 393.092 -26.8538C392.504 -27.8623 391.807 -28.8035 391.014 -29.6604C390.348 -30.531 389.676 -31.366 388.963 -32.1709L386.596 -34.7673C385.812 -35.6331 384.962 -36.4372 384.054 -37.1723C383.019 -37.95 381.897 -38.6034 380.71 -39.1189C379.421 -39.4627 378.253 -40.1574 377.335 -41.1256C376.417 -42.0939 375.786 -43.2978 375.512 -44.6034C374.672 -45.0634 374.298 -44.5382 373.826 -44.3202C373.43 -44.1407 373.006 -44.0341 372.572 -44.0057C372.416 -44.0078 372.261 -44.0452 372.121 -44.115C371.981 -44.1848 371.858 -44.2852 371.762 -44.4089C371.666 -44.5326 371.598 -44.6763 371.565 -44.8295C371.532 -44.9826 371.534 -45.1413 371.57 -45.2937C372.123 -46.9586 373.681 -47.5902 374.889 -46.4523C375.326 -46.0644 375.84 -45.7732 376.398 -45.5979C376.955 -45.4226 377.543 -45.3671 378.123 -45.435C378.729 -45.3402 379.379 -45.5303 379.995 -45.5067C381.087 -45.5072 382.14 -45.1086 382.958 -44.3859C383.798 -43.7219 384.6 -43.0115 385.361 -42.2582C386.035 -41.406 386.905 -40.7302 387.897 -40.2888C388.889 -39.8474 389.974 -39.6536 391.058 -39.7241C391.77 -39.8243 392.496 -39.709 393.142 -39.3933C393.789 -39.0775 394.326 -38.5756 394.684 -37.9521C395.381 -37.0403 396.195 -36.183 396.974 -35.3313C398.838 -33.5649 401.223 -32.4489 403.773 -32.1502C405.66 -31.96 407.56 -32.3355 409.233 -33.229C409.503 -33.4618 409.683 -33.7826 409.74 -34.1348C409.783 -34.3936 409.735 -34.6596 409.602 -34.8861C409.293 -35.7894 409.208 -36.7544 409.356 -37.6976C409.504 -38.6408 409.879 -39.5339 410.45 -40.2994C410.688 -40.773 411.053 -41.1706 411.505 -41.4476C412.719 -42.2063 413.992 -42.8825 415.266 -43.5588C415.597 -43.7035 415.957 -43.7718 416.319 -43.7588C418.136 -43.8635 419.933 -43.328 421.396 -42.2456C422.86 -41.1631 423.898 -39.6021 424.33 -37.8337C424.575 -37.0657 424.784 -36.3032 425.023 -35.4995C425.559 -35.3606 426.108 -35.2747 426.661 -35.243C427.733 -35.3305 428.791 -35.5661 429.874 -35.7248C431.2 -35.9315 432.429 -36.5416 433.395 -37.4721C434.539 -38.25 435.358 -39.4196 435.698 -40.7602C435.803 -41.2033 436.024 -41.6104 436.338 -41.9395C436.653 -42.2687 437.05 -42.508 437.487 -42.6328C438.114 -42.862 438.753 -43.0543 439.402 -43.2086C439.278 -43.8119 439.384 -44.4886 439.096 -44.7525C438.325 -45.4206 438.281 -46.3032 438.012 -47.148C437.923 -47.6785 437.954 -48.2222 438.103 -48.7392C438.251 -49.2562 438.513 -49.7335 438.87 -50.1359C439.227 -50.5383 439.67 -50.8558 440.165 -51.065C440.661 -51.2742 441.197 -51.3699 441.734 -51.3449C442.164 -51.2215 442.617 -51.2079 443.053 -51.3053C443.489 -51.4028 443.894 -51.6082 444.23 -51.9028C444.412 -51.4364 444.435 -50.8854 444.752 -50.5804C445.091 -50.295 445.512 -50.1266 445.954 -50.1002L450.513 -49.3863C450.994 -49.8948 451.656 -50.6302 452.283 -51.3713C452.447 -51.5784 452.592 -51.8001 452.715 -52.0334C454.04 -53.8035 454.979 -55.8316 455.472 -57.9869C455.554 -58.5654 455.775 -59.1153 456.116 -59.5894C456.457 -60.0635 456.908 -60.4476 457.431 -60.7086L458.54 -61.2648L459.226 -65.6453C459.302 -65.8997 459.343 -66.1633 459.348 -66.4288C459.154 -68.6849 458.99 -70.8998 458.755 -73.1259C458.479 -75.2701 458.476 -77.4407 458.745 -79.5857C458.93 -81.4647 459.222 -83.3315 459.621 -85.1771C460.157 -87.4562 460.037 -89.8406 459.275 -92.0544C458.979 -93.1954 458.607 -94.3118 458.382 -95.4416C458.288 -96.1482 458.253 -96.8616 458.279 -97.5741L457.99 -97.3638ZM424.306 29.8832C424.15 29.8764 423.994 29.9015 423.848 29.9569C423.701 30.0123 423.568 30.097 423.455 30.2056C423.343 30.3143 423.253 30.4447 423.193 30.5889C423.132 30.7332 423.102 30.8883 423.103 31.0448C423.086 31.2012 423.103 31.3593 423.152 31.5088C423.201 31.6583 423.281 31.7957 423.387 31.9122C423.493 32.0286 423.622 32.1214 423.766 32.1845C423.91 32.2476 424.066 32.2796 424.223 32.2783C424.494 32.2542 424.748 32.1383 424.943 31.9499C425.138 31.7615 425.264 31.5118 425.298 31.2425C425.374 30.5246 424.863 29.8244 424.317 29.812L424.306 29.8832ZM458.852 65.578C458.426 65.0369 458.173 64.5594 457.803 64.3555C457.434 64.1517 456.539 64.7413 456.485 65.3167C456.431 65.8921 457.043 66.6447 457.575 66.5091C458.107 66.3735 458.471 65.9196 459.006 65.5291L458.852 65.578ZM447.794 68.6259C448.294 68.2299 448.689 68.0364 448.887 67.7026C449.085 67.3687 448.659 66.8276 448.232 66.7607C447.804 66.6938 447.297 66.9062 447.254 67.4103C447.212 67.9145 447.705 68.0282 447.947 68.577L447.794 68.6259ZM419.467 29.5632L419.428 29.8125L419.467 29.5632ZM424.273 41.0432L424.452 41.0711L424.915 41.1436L424.764 40.9376L424.273 41.0432Z" fill="#C234E2"/>
<path d="M345.152 97.0651C344.981 98.4143 344.361 99.6667 343.391 100.62C341.761 102.251 339.8 103.512 337.64 104.32C335.481 105.127 333.173 105.462 330.873 105.301C330.106 105.226 329.363 104.99 328.694 104.608C328.024 104.227 327.443 103.708 326.987 103.087C326.606 102.591 326.376 101.997 326.324 101.374C326.273 100.751 326.403 100.126 326.698 99.575C328.181 96.7769 330.65 94.6285 333.626 93.5451C334.257 93.2426 334.973 93.0992 335.634 92.8379C337.663 92.0455 339.907 91.9962 341.968 92.6988C342.9 92.9846 343.713 93.5645 344.287 94.3517C344.861 95.1388 345.165 96.0909 345.152 97.0651Z" fill="#C234E2"/>
<path d="M385.931 96.2283C385.417 96.1784 384.905 96.0983 384.4 95.9885C383.777 95.7964 383.208 95.46 382.739 95.0068C382.271 94.5535 381.916 93.996 381.703 93.3797C381.49 92.7634 381.426 92.1056 381.515 91.4598C381.604 90.8139 381.844 90.1982 382.216 89.6626C384.139 86.7237 387.068 84.5876 390.455 83.6553C391.624 83.3428 392.846 83.278 394.042 83.4653C395.238 83.6526 396.381 84.0878 397.399 84.7429C398.009 85.0906 398.532 85.5718 398.93 86.1505C399.327 86.7292 399.588 87.3903 399.694 88.0844C399.799 88.7784 399.746 89.4873 399.539 90.1579C399.331 90.8285 398.974 91.4435 398.495 91.9566C396.945 93.8323 394.877 95.2091 392.548 95.9146C390.363 96.2802 388.142 96.3855 385.931 96.2283Z" fill="#C234E2"/>
<path d="M413.678 94.2624C413.488 95.0966 413.122 95.8802 412.602 96.5597C412.082 97.2392 411.422 97.7987 410.667 98.1999C409.911 98.6011 409.078 98.8345 408.224 98.8844C407.37 98.9343 406.515 98.7995 405.718 98.489C405.227 98.2744 404.806 97.9271 404.501 97.4863C404.196 97.0454 404.02 96.5283 403.993 95.993C403.942 95.1448 404.08 94.2958 404.397 93.5075C404.714 92.7192 405.203 92.0113 405.828 91.4351C406.452 90.8589 407.197 90.4288 408.008 90.1759C408.82 89.923 409.677 89.8537 410.518 89.9729L410.803 90.0175C413.163 90.0951 414.066 91.5502 413.678 94.2624Z" fill="#C234E2"/>
<path d="M416.652 82.2485C417.314 82.6806 418.088 83.0939 418.769 83.6384C419.254 83.9615 419.619 84.4344 419.81 84.9847C420 85.535 420.005 86.1325 419.824 86.686C419.684 87.3384 419.364 87.9389 418.902 88.4206C418.44 88.9022 417.854 89.2463 417.208 89.4142C416.738 89.5795 416.239 89.6456 415.742 89.6084C415.246 89.5712 414.762 89.4314 414.322 89.1979C413.882 88.9644 413.495 88.6423 413.186 88.2519C412.877 87.8615 412.652 87.4112 412.525 86.9295C412.359 86.1507 412.455 85.3386 412.798 84.6201C413.142 83.9016 413.714 83.3171 414.424 82.9579C415.086 82.6966 415.771 82.512 416.652 82.2485Z" fill="#C234E2"/>
<path d="M357.995 3.40833C356.881 2.83252 355.909 2.279 355.677 0.965582C355.616 0.59432 355.629 0.214637 355.716 -0.151555C355.802 -0.517746 355.96 -0.863202 356.181 -1.1679C356.402 -1.47261 356.681 -1.73052 357.002 -1.92679C357.323 -2.12305 357.679 -2.25378 358.051 -2.31137C358.487 -2.37184 358.93 -2.37616 359.367 -2.32425C359.952 -2.30533 360.514 -2.0917 360.965 -1.71718C361.415 -1.34266 361.727 -0.828633 361.852 -0.256523C361.98 0.429874 361.867 1.1393 361.532 1.75171C361.196 2.36413 360.66 2.84191 360.013 3.10409C359.351 3.26889 358.675 3.37075 357.995 3.40833Z" fill="#C234E2"/>
<path d="M446.545 101.308C447.221 101.665 447.743 102.255 448.014 102.97C448.285 103.684 448.286 104.473 448.017 105.188C447.791 105.868 447.38 106.473 446.831 106.936C446.49 107.236 446.061 107.417 445.608 107.451C445.155 107.486 444.703 107.372 444.32 107.126C443.965 106.927 443.686 106.616 443.526 106.241C443.367 105.866 443.337 105.449 443.441 105.055C443.549 104.2 443.899 103.394 444.449 102.731C444.998 102.067 445.725 101.574 446.545 101.308Z" fill="#C234E2"/>
<path d="M376.874 72.7341C377.356 72.8208 377.793 73.0743 378.108 73.4504C378.423 73.8264 378.595 74.3011 378.595 74.7915C378.574 75.0529 378.5 75.3073 378.378 75.5395C378.256 75.7718 378.089 75.9769 377.886 76.1427C377.682 76.3086 377.448 76.4317 377.196 76.5046C376.944 76.5775 376.68 76.5988 376.42 76.5671C376.176 76.5595 375.937 76.5035 375.715 76.4025C375.493 76.3016 375.294 76.1575 375.128 75.9788C374.963 75.8002 374.835 75.5903 374.751 75.3616C374.667 75.1329 374.63 74.8898 374.641 74.6465C374.726 74.1147 374.997 73.6304 375.406 73.2801C375.815 72.9298 376.335 72.7363 376.874 72.7341Z" fill="#C234E2"/>
<path d="M386.033 4.47799L385.757 4.14257L386.117 3.94331C386.114 4.12457 386.086 4.30452 386.033 4.47799Z" fill="#C234E2"/>
<path d="M254.263 -10.0344C253.722 -9.29697 253.072 -8.64655 252.334 -8.10559C250.973 -7.51572 249.549 -7.08042 248.09 -6.80794C245.776 -6.38709 243.461 -6.10655 241.147 -5.89612C240.03 -5.8567 238.913 -5.93901 237.815 -6.14162L231.993 -6.98333C230.749 -7.0604 229.571 -7.56883 228.661 -8.42116C228.07 -8.97262 227.65 -9.68246 227.451 -10.4659C227.252 -11.2494 227.283 -12.0734 227.539 -12.8401C227.809 -13.6962 228.339 -14.4469 229.056 -14.9875C229.772 -15.5281 230.64 -15.8318 231.537 -15.8562C232.277 -15.8515 233.015 -15.7929 233.747 -15.6809C234.472 -15.5165 235.213 -15.4341 235.956 -15.4354C240.395 -15.3958 244.795 -14.6011 248.967 -13.0856C249.91 -12.8535 250.827 -12.5244 251.703 -12.1036C252.606 -11.4783 253.462 -10.7867 254.263 -10.0344Z" fill="#3232FD"/>
<path d="M311.993 111.6L309.783 112.968C309.179 113.416 308.441 113.647 307.689 113.621C306.938 113.596 306.217 113.316 305.645 112.828C304.855 112.368 304.208 111.698 303.775 110.894C303.342 110.089 303.139 109.181 303.19 108.269C303.165 107.218 303.473 106.187 304.072 105.323C304.671 104.46 305.529 103.808 306.522 103.464C307.784 103.043 308.976 102.412 310.274 101.886L309.923 100.413C310.504 99.6301 311.233 98.97 312.07 98.4704C312.907 97.9708 313.834 97.6416 314.798 97.5018C315.158 97.4357 315.502 97.3051 315.815 97.1161C319.077 95.7483 319.743 95.9237 321.953 98.8346C322.172 101.029 321.513 103.221 320.119 104.93C318.726 106.639 316.711 107.726 314.518 107.953C313.851 108.619 314.342 108.97 314.518 109.426C314.693 109.882 314.202 110.162 313.606 109.847C313.01 109.531 312.343 109.286 310.765 109.952L311.922 111.67L311.993 111.6Z" fill="#3232FD"/>
<path d="M601.778 99.9824C597.92 103.139 597.92 103.139 593.536 101.21L591.081 100.368C587.404 98.9315 584.147 96.5915 581.612 93.5644C581.316 93.1745 581.09 92.7352 580.946 92.2668C580.875 92.0274 580.852 91.7762 580.879 91.5279C580.906 91.2796 580.982 91.0392 581.103 90.8205C581.224 90.6019 581.387 90.4094 581.583 90.2543C581.778 90.0993 582.003 89.9846 582.244 89.9171C584.009 89.3424 585.885 89.1922 587.719 89.4786C589.553 89.765 591.294 90.48 592.8 91.5654C593.561 92.1783 594.371 92.7295 595.22 93.2138C597.564 94.0609 599.603 95.587 601.077 97.5976C601.858 98.3899 602.883 98.8963 603.987 99.0355C605.075 99.3511 606.232 99.3862 607.003 100.368C607.214 100.579 607.389 101.175 607.249 101.315C606.972 101.677 606.573 101.926 606.127 102.016C605.635 101.956 605.165 101.775 604.759 101.49L601.778 99.9824Z" fill="#3232FD"/>
<path d="M303.222 24.7587C304.504 25.9835 305.252 27.6637 305.304 29.4358C305.357 31.2078 304.71 32.9294 303.503 34.2279C302.454 34.9616 301.247 35.4388 299.98 35.6216C298.713 35.8043 297.421 35.6873 296.208 35.2799C295.265 34.9871 294.402 34.4835 293.683 33.8071C292.978 32.9786 292.431 32.0275 292.07 31.0014C291.424 29.8789 291.207 28.5607 291.458 27.2905C291.71 26.0204 292.413 24.8842 293.437 24.0925C294.678 23.046 296.243 22.4604 297.866 22.4348C299.49 22.4093 301.072 22.9453 302.345 23.9521C302.667 24.1866 302.962 24.4572 303.222 24.7587Z" fill="#3232FD"/>
<path d="M262.365 69.8238C261.713 69.4256 261.033 69.0741 260.331 68.7717C259.861 68.5987 259.447 68.3021 259.132 67.9132C258.818 67.5243 258.614 67.0575 258.542 66.5623C258.373 65.7661 258.484 64.9357 258.858 64.2125C259.172 63.4196 259.645 62.6993 260.249 62.0962C260.852 61.493 261.572 61.0197 262.365 60.7055C264.329 59.7235 266.082 58.4609 268.117 57.6192C269.572 56.9423 271.188 56.6872 272.781 56.8828C273.462 56.8571 274.133 57.0512 274.695 57.4365C275.257 57.8217 275.681 58.3776 275.902 59.022C276.103 59.7414 276.095 60.5032 275.877 61.2177C275.66 61.9323 275.243 62.5698 274.675 63.0552C273.201 64.4999 271.493 65.6855 269.625 66.5622C266.994 67.3689 264.925 69.2276 262.365 69.8238Z" fill="#3232FD"/>
<path d="M230.105 14.8374C232.139 14.4866 233.928 15.5037 235.997 15.9596C236.274 16.1959 236.532 16.4539 236.768 16.7312C238.662 20.0279 238.347 21.1851 235.26 23.0088C232.411 24.6992 229.137 25.5388 225.826 25.4287C224.833 25.4644 223.857 25.1558 223.065 24.5551C222.272 23.9544 221.712 23.0985 221.477 22.132C221.158 21.078 221.198 19.9475 221.591 18.9188C221.985 17.8901 222.71 17.0217 223.652 16.4506C225.652 15.2153 228.026 14.7306 230.35 15.0829L230.42 15.9246L230.596 16.1L230.105 14.8374Z" fill="#3232FD"/>
<path d="M303.603 72.5533C302.806 72.7059 301.981 72.5572 301.288 72.136C300.595 71.7148 300.083 71.0511 299.851 70.2737C299.535 69.9581 299.956 69.1866 299.991 68.38L298.623 67.0122L299.395 64.6975C300.412 64.943 301.464 65.0132 301.92 63.926C302.176 63.1152 302.352 62.2812 302.446 61.436C303.202 61.0483 304.035 60.8345 304.885 60.8102C305.734 60.7859 306.579 60.9518 307.356 61.2957C308.239 61.6026 309.023 62.1415 309.625 62.8557C310.228 63.57 310.628 64.4333 310.782 65.3552C310.936 66.277 310.839 67.2233 310.502 68.0949C310.164 68.9665 309.599 69.7312 308.864 70.3088C308.624 70.6681 308.302 70.9643 307.923 71.1719C307.544 71.3795 307.121 71.4925 306.689 71.5012C307.18 71.0102 306.619 70.8699 306.128 70.9401L306.795 71.6064C306.368 72.0095 305.858 72.3129 305.3 72.4948C304.742 72.6768 304.15 72.7327 303.568 72.6585C303.84 72.4656 304.077 72.2286 304.27 71.9572C304.259 71.6224 304.135 71.3011 303.919 71.0453C303.919 71.0453 303.393 70.9401 303.323 71.0804C303.116 71.3373 303.016 71.6636 303.042 71.9922C303.197 72.2087 303.387 72.3983 303.603 72.5533Z" fill="#3232FD"/>
<path d="M553.002 94.0635C553.164 93.2848 553.627 92.6015 554.29 92.1618C554.953 91.722 555.763 91.561 556.544 91.7137C559.902 91.9808 563.063 93.4065 565.487 95.7469C565.869 96.0186 566.194 96.3629 566.443 96.7602C566.692 97.1576 566.861 97.6001 566.939 98.0626C567.017 98.525 567.004 98.9984 566.899 99.4555C566.794 99.9127 566.6 100.345 566.328 100.727C565.828 101.438 565.102 101.96 564.269 102.208C563.435 102.456 562.542 102.416 561.734 102.095C559.751 101.534 557.927 100.516 556.41 99.1205C554.893 97.7254 553.726 95.9931 553.002 94.0635Z" fill="#3232FD"/>
<path d="M301.963 8.20692C301.556 7.52864 301.215 6.81216 300.946 6.06763C300.78 5.41709 300.869 4.72765 301.195 4.14074C301.521 3.55382 302.06 3.11389 302.7 2.91123C305.423 2.03587 308.376 2.21101 310.977 3.40222C311.257 3.60985 311.505 3.85806 311.713 4.1387C313.782 6.20788 313.712 7.96145 311.117 9.224C308.77 10.2077 306.154 10.3441 303.717 9.60978C303.056 9.24666 302.463 8.77203 301.963 8.20692Z" fill="#3232FD"/>
<path d="M298.35 86.3074L297.333 82.6951C297.729 82.3927 298.082 82.0389 298.385 81.643C298.954 80.6901 299.705 79.8588 300.596 79.1968C301.486 78.5348 302.499 78.055 303.575 77.7852C304.471 77.4785 305.435 77.4344 306.355 77.6581C307.275 77.8818 308.111 78.364 308.766 79.0478C309.011 81.0468 307.573 82.4146 306.872 84.1681C305.835 84.9168 304.572 85.2881 303.295 85.2203C303.071 85.2276 302.854 85.2928 302.663 85.4096C302.472 85.5265 302.316 85.6908 302.208 85.8866C302.147 86.1254 302.037 86.3487 301.884 86.5415C301.731 86.7344 301.538 86.8924 301.319 87.0052C301.1 87.1179 300.86 87.1829 300.614 87.1957C300.368 87.2084 300.122 87.1686 299.893 87.079C299.356 86.869 298.84 86.6107 298.35 86.3074Z" fill="#3232FD"/>
<path d="M358.352 89.4311C358.471 89.9824 358.413 90.5571 358.186 91.0735C357.959 91.5899 357.576 92.0215 357.089 92.3069C356.708 92.7625 356.23 93.1278 355.69 93.3765C355.15 93.6251 354.562 93.7509 353.968 93.7448C353.31 93.7124 352.65 93.7595 352.004 93.8851L350.04 91.4302C350.25 91.2198 350.566 90.9041 350.391 90.4482C350.215 89.9922 351.302 89.5364 351.478 88.9402C351.653 88.344 351.408 87.4672 351.653 86.871C351.899 86.2748 352.74 85.7837 352.951 85.924C354.283 86.7657 355.336 85.8539 356.388 85.5032C356.77 85.308 357.205 85.239 357.629 85.3061C358.054 85.3732 358.446 85.5729 358.75 85.8767C359.054 86.1805 359.253 86.5727 359.32 86.997C359.387 87.4214 359.318 87.8561 359.123 88.2387C358.938 88.6847 358.703 89.1083 358.422 89.5013L358.352 89.4311Z" fill="#3232FD"/>
<path d="M321.006 41.4928C319.792 42.2773 318.526 42.9802 317.219 43.597C316.852 43.7581 316.456 43.8422 316.055 43.8439C315.655 43.8457 315.258 43.7652 314.89 43.6073C314.521 43.4495 314.189 43.2178 313.914 42.9265C313.639 42.6351 313.427 42.2904 313.291 41.9137C313.147 41.2157 313.272 40.4892 313.641 39.8796C314.474 38.664 315.688 37.7597 317.091 37.309C318.494 36.8583 320.007 36.8867 321.392 37.3896C321.661 37.4551 321.909 37.5879 322.113 37.7755C322.317 37.9631 322.47 38.1994 322.558 38.4622C322.645 38.7251 322.665 39.006 322.614 39.2784C322.564 39.5508 322.445 39.806 322.269 40.0199C321.953 40.4057 321.603 40.7563 321.006 41.4928Z" fill="#3232FD"/>
<path d="M650 -2.52461C648.983 -3.54166 649.088 -4.76914 649.93 -5.33027C651.722 -6.43212 653.872 -6.79662 655.927 -6.3473C656.401 -6.21941 656.819 -5.93514 657.111 -5.54053C657.404 -5.14592 657.555 -4.66407 657.54 -4.17293C657.61 -3.68291 657.494 -3.18459 657.215 -2.7758C656.935 -2.36701 656.514 -2.07727 656.032 -1.96346C654.02 -1.40619 651.874 -1.60585 650 -2.52461Z" fill="#3232FD"/>
<path d="M689.357 11.5046C689.479 11.3476 689.621 11.2062 689.778 11.0837C689.778 11.0837 689.707 11.5046 689.497 11.3643C689.454 11.4151 689.407 11.462 689.357 11.5046Z" fill="#3232FD"/>
<path d="M332.575 48.7835L331.488 48.8886L332.61 48.8886L332.575 48.7835Z" fill="#3232FD"/>
<path d="M589.263 12.9812L589.018 13.0163L589.263 13.1215L589.263 12.9812Z" fill="#3232FD"/>
<path d="M590.376 12.8328L589.254 12.973L590.341 12.8678L590.376 12.8328Z" fill="#3232FD"/>
<path d="M590.238 13.1142L590.588 13.1141L590.343 12.8687L590.238 13.1142Z" fill="#3232FD"/>
<path d="M617.103 56.9523C615.875 58.1798 614.683 58.8813 613.631 59.6528C611.883 59.6505 610.194 59.0292 608.861 57.8992C606.202 56.1108 603.916 53.8241 602.127 51.1657C601.58 50.352 601.1 49.4959 600.689 48.6055C600.243 47.3086 599.347 46.2142 598.164 45.5193C596.914 44.6991 595.985 43.4728 595.534 42.0472C595.269 41.6253 595.1 41.1498 595.041 40.6549C594.981 40.16 595.032 39.6581 595.189 39.1852C595.347 38.7123 595.608 38.2803 595.952 37.9201C596.297 37.56 596.717 37.2806 597.182 37.1023C597.58 36.899 598.005 36.7572 598.445 36.6815C599.359 36.9443 600.21 37.3909 600.946 37.9939C601.681 38.5969 602.286 39.3437 602.724 40.1886C603.569 41.5403 604.804 42.604 606.266 43.2396C609.841 44.9587 612.874 47.6279 615.033 50.9552C615.93 52.8769 616.623 54.8868 617.103 56.9523Z" fill="#3232FD"/>
<path d="M589.677 108.579C589.076 108.63 588.469 108.571 587.889 108.404C587.486 108.161 587.149 107.824 586.907 107.422C586.807 107.237 586.754 107.03 586.752 106.82C586.75 106.609 586.8 106.402 586.896 106.215C586.993 106.028 587.134 105.868 587.307 105.748C587.48 105.628 587.68 105.553 587.889 105.528C588.731 105.317 589.362 105.598 589.502 106.44C589.621 107.147 589.68 107.862 589.677 108.579Z" fill="#3232FD"/>
</g>
<defs>
<clipPath id="clip0">
<rect width="736" height="105" fill="white"/>
</clipPath>
</defs>
</svg>
