<svg width="15" height="14" viewBox="0 0 15 14" fill="none" xmlns="http://www.w3.org/2000/svg">
<path d="M2.3484 4.69678H0.469687C0.210312 4.69678 0 4.90706 0 5.16646V12.6812C0 12.9406 0.210281 13.1509 0.469687 13.1509H2.34837C2.60775 13.1509 2.81806 12.9406 2.81806 12.6812V5.16643C2.81806 4.90706 2.60781 4.69678 2.3484 4.69678Z" fill="#39B081"/>
<path d="M14.0813 5.94174C13.9984 5.21315 13.3178 4.69674 12.5845 4.69674H8.92283C9.23402 4.13952 9.40105 2.5635 9.39365 1.91968C9.38136 0.853999 8.49884 0 7.43312 0H7.04556C6.78596 0 6.57587 0.210062 6.57587 0.469687C6.57587 1.55578 6.15296 3.51615 5.35537 4.31377C4.81853 4.85062 4.35959 5.04515 3.75781 5.3459V12.3933C4.67915 12.7004 5.84897 13.1509 7.63199 13.1509H10.7044C11.7167 13.1509 12.5051 12.2133 12.1129 11.2227C12.7105 11.0599 13.1513 10.5117 13.1513 9.86317C13.1513 9.68014 13.116 9.50495 13.0522 9.34395C14.0594 9.06954 14.4301 7.82595 13.731 7.04511C13.9879 6.75821 14.1295 6.36577 14.0813 5.94174Z" fill="#39B081"/>
</svg>
