<svg width="97" height="141" viewBox="0 0 97 141" fill="none" xmlns="http://www.w3.org/2000/svg">
<g clip-path="url(#clip0)">
<path d="M0.864929 16.7212C0.864929 7.4863 8.33106 0 17.541 0H80.1889C89.3989 0 96.8649 7.48632 96.8649 16.7212V141L10.4655 100.407C4.60699 97.6549 0.864929 91.753 0.864929 85.2658V16.7212Z" fill="#EEEEEE"/>
<path fill-rule="evenodd" clip-rule="evenodd" d="M58.3812 22.5918L25.5799 55.0757H35.8298H49.1265L52.1305 52.0384H42.8328H36.1939L54.6519 30.2927L58.3812 22.5918Z" fill="black"/>
<path fill-rule="evenodd" clip-rule="evenodd" d="M39.3486 78.2202L72.15 45.7363H61.9H48.6034L45.5993 48.7735H54.897H61.5359L52.307 59.6465L43.0779 70.5193L39.3486 78.2202Z" fill="black"/>
<path fill-rule="evenodd" clip-rule="evenodd" d="M39.3486 78.2202L72.15 45.7363H61.9H48.6034L45.5993 48.7735H54.897H61.5359L52.307 59.6465L43.0779 70.5193L39.3486 78.2202Z" fill="black"/>
</g>
<defs>
<clipPath id="clip0">
<rect width="96" height="141" fill="white" transform="translate(0.864929)"/>
</clipPath>
</defs>
</svg>
