<svg width="352" height="375" viewBox="0 0 352 375" fill="none" xmlns="http://www.w3.org/2000/svg">
<line x1="-243.235" y1="242.817" x2="729.707" y2="242.817" stroke="#0F8AAA" stroke-width="3"/>
<line x1="-232.917" y1="343.992" x2="718.764" y2="141.706" stroke="#0F8AAA" stroke-width="3"/>
<line x1="-201.788" y1="440.812" x2="687.039" y2="45.0805" stroke="#0F8AAA" stroke-width="3"/>
<line x1="-151.21" y1="529.044" x2="635.917" y2="-42.8376" stroke="#0F8AAA" stroke-width="3"/>
<line x1="-83.3922" y1="604.831" x2="567.633" y2="-118.206" stroke="#0F8AAA" stroke-width="3"/>
<line x1="-1.29928" y1="664.863" x2="485.172" y2="-177.73" stroke="#0F8AAA" stroke-width="3"/>
<circle cx="243.236" cy="244.314" r="40.8936" transform="rotate(-30 243.236 244.314)" fill="#BE2636"/>
<path fill-rule="evenodd" clip-rule="evenodd" d="M238.929 223.059L229.867 256.059L236.456 252.255L245.003 247.32L245.81 244.257L239.833 247.708L235.566 250.172L239.382 229.38L238.929 223.059Z" fill="#EEEEEE"/>
<path fill-rule="evenodd" clip-rule="evenodd" d="M247.284 265.787L256.347 232.787L249.757 236.591L241.21 241.526L240.403 244.588L246.38 241.138L250.648 238.674L248.739 249.07L246.831 259.466L247.284 265.787Z" fill="#EEEEEE"/>
<path fill-rule="evenodd" clip-rule="evenodd" d="M247.284 265.787L256.347 232.787L249.757 236.591L241.21 241.526L240.403 244.588L246.38 241.138L250.648 238.674L248.739 249.07L246.831 259.466L247.284 265.787Z" fill="#EEEEEE"/>
</svg>
