<svg width="567" height="290" viewBox="0 0 567 290" fill="none" xmlns="http://www.w3.org/2000/svg">
<path d="M80.0001 263.048C35.8173 263.048 -1.56562e-06 227.231 -3.49691e-06 183.048L-7.9721e-06 80.6674C-9.90339e-06 36.4846 35.8172 0.667387 80 0.667385L551 0.667365L441.011 204.716C421.643 240.646 384.119 263.048 343.302 263.048L80.0001 263.048Z" fill="#EEB125"/>
<path d="M96.0001 289.178C51.8173 289.178 16 253.36 16 209.178L16 106.797C16 62.6145 51.8172 26.7973 96 26.7973L567 26.7972L457.011 230.846C437.643 266.776 400.119 289.178 359.302 289.178L96.0001 289.178Z" fill="#EDEDED"/>
</svg>
