<svg width="16" height="17" viewBox="0 0 16 17" fill="none" xmlns="http://www.w3.org/2000/svg">
<path d="M14.8684 2.8175C14.8684 4.01416 13.8984 4.98425 12.7018 4.98425C11.5051 4.98425 10.5352 4.01416 10.5352 2.8175C10.5352 1.62097 11.5051 0.650879 12.7018 0.650879C13.8984 0.650879 14.8684 1.62097 14.8684 2.8175Z" fill="#0066FF"/>
<path d="M12.7018 5.48425C11.2311 5.48425 10.0352 4.28821 10.0352 2.8175C10.0352 1.34692 11.2311 0.150879 12.7018 0.150879C14.1725 0.150879 15.3684 1.34692 15.3684 2.8175C15.3684 4.28821 14.1725 5.48425 12.7018 5.48425ZM12.7018 1.15088C11.7825 1.15088 11.0352 1.89893 11.0352 2.8175C11.0352 3.73621 11.7825 4.48425 12.7018 4.48425C13.6211 4.48425 14.3684 3.73621 14.3684 2.8175C14.3684 1.89893 13.6211 1.15088 12.7018 1.15088Z" fill="#0066FF"/>
<path d="M14.8684 13.4841C14.8684 14.6807 13.8984 15.6508 12.7018 15.6508C11.5051 15.6508 10.5352 14.6807 10.5352 13.4841C10.5352 12.2875 11.5051 11.3174 12.7018 11.3174C13.8984 11.3174 14.8684 12.2875 14.8684 13.4841Z" fill="#0066FF"/>
<path d="M12.7018 16.1508C11.2311 16.1508 10.0352 14.9547 10.0352 13.4841C10.0352 12.0134 11.2311 10.8174 12.7018 10.8174C14.1725 10.8174 15.3684 12.0134 15.3684 13.4841C15.3684 14.9547 14.1725 16.1508 12.7018 16.1508ZM12.7018 11.8174C11.7825 11.8174 11.0352 12.5654 11.0352 13.4841C11.0352 14.4027 11.7825 15.1508 12.7018 15.1508C13.6211 15.1508 14.3684 14.4027 14.3684 13.4841C14.3684 12.5654 13.6211 11.8174 12.7018 11.8174Z" fill="#0066FF"/>
<path d="M5.53455 8.151C5.53455 9.34766 4.56445 10.3176 3.3678 10.3176C2.17126 10.3176 1.20117 9.34766 1.20117 8.151C1.20117 6.95435 2.17126 5.98438 3.3678 5.98438C4.56445 5.98438 5.53455 6.95435 5.53455 8.151Z" fill="#0066FF"/>
<path d="M3.3678 10.8176C1.89722 10.8176 0.701172 9.6217 0.701172 8.151C0.701172 6.6803 1.89722 5.48438 3.3678 5.48438C4.8385 5.48438 6.03455 6.6803 6.03455 8.151C6.03455 9.6217 4.8385 10.8176 3.3678 10.8176ZM3.3678 6.48437C2.44849 6.48437 1.70117 7.2323 1.70117 8.151C1.70117 9.0697 2.44849 9.81763 3.3678 9.81763C4.28723 9.81763 5.03455 9.0697 5.03455 8.151C5.03455 7.2323 4.28723 6.48437 3.3678 6.48437Z" fill="#0066FF"/>
<path d="M4.66617 8.15088C4.45014 8.15088 4.24036 8.0267 4.12615 7.80457C3.95671 7.47609 4.06103 7.05708 4.35832 6.86911L10.1171 3.24154C10.4144 3.05295 10.7936 3.16821 10.9637 3.49795C11.1331 3.82643 11.0288 4.24544 10.7315 4.43341L4.97266 8.06097C4.87584 8.122 4.77038 8.15088 4.66617 8.15088Z" fill="#0066FF"/>
<path d="M11.1273 13.3309C11.0153 13.3309 10.902 13.3029 10.798 13.2435L4.61194 9.71692C4.29261 9.53491 4.18067 9.12756 4.36267 8.80749C4.54395 8.48755 4.95191 8.37488 5.27197 8.55823L11.458 12.0848C11.7773 12.2669 11.8893 12.6742 11.7073 12.9943C11.584 13.2102 11.3586 13.3309 11.1273 13.3309Z" fill="#0066FF"/>
</svg>
