<svg width="29" height="21" viewBox="0 0 29 21" fill="none" xmlns="http://www.w3.org/2000/svg">
<path d="M28.8652 10.5H0.865234M0.865234 10.5L10.1986 1M0.865234 10.5L10.1986 20" stroke="black"/>
</svg>
