<svg width="139" height="166" viewBox="0 0 139 166" fill="none" xmlns="http://www.w3.org/2000/svg">
<path fill-rule="evenodd" clip-rule="evenodd" d="M98 0L0 97H30.6235H70.3497L79.325 87.9301H51.5463H31.7115L86.8581 22.9957L98 0Z" fill="white"/>
<path fill-rule="evenodd" clip-rule="evenodd" d="M41 166L139 69H108.377H68.6503L59.675 78.0694H87.4537H107.288L79.7154 110.537L52.1419 143.004L41 166Z" fill="white"/>
</svg>
