<svg width="24" height="24" viewBox="0 0 24 24" fill="none" xmlns="http://www.w3.org/2000/svg">
<circle cx="12.2908" cy="12.3059" r="11.657" fill="white"/>
<g clip-path="url(#clip0)">
<path d="M15.2903 6.30816L13.7342 6.30566C11.986 6.30566 10.8562 7.4648 10.8562 9.25888V10.6205H9.29156C9.15636 10.6205 9.04688 10.7301 9.04688 10.8653V12.8382C9.04688 12.9734 9.15648 13.0829 9.29156 13.0829H10.8562V18.061C10.8562 18.1962 10.9656 18.3057 11.1008 18.3057H13.1422C13.2774 18.3057 13.3869 18.1961 13.3869 18.061V13.0829H15.2163C15.3515 13.0829 15.461 12.9734 15.461 12.8382L15.4617 10.8653C15.4617 10.8004 15.4359 10.7382 15.3901 10.6923C15.3442 10.6464 15.2818 10.6205 15.2169 10.6205H13.3869V9.46624C13.3869 8.91145 13.5191 8.62981 14.2418 8.62981L15.2901 8.62944C15.4251 8.62944 15.5346 8.51983 15.5346 8.38475V6.55285C15.5346 6.4179 15.4253 6.30841 15.2903 6.30816Z" fill="black"/>
</g>
<defs>
<clipPath id="clip0">
<rect width="12" height="12" fill="white" transform="translate(6.29102 6.30566)"/>
</clipPath>
</defs>
</svg>
