<svg width="21" height="20" viewBox="0 0 21 20" fill="none" xmlns="http://www.w3.org/2000/svg">
<g clip-path="url(#clip0)">
<path d="M14.4609 0H6.96094C3.50969 0 0.710938 2.79875 0.710938 6.25V13.75C0.710938 17.2013 3.50969 20 6.96094 20H14.4609C17.9122 20 20.7109 17.2013 20.7109 13.75V6.25C20.7109 2.79875 17.9122 0 14.4609 0ZM18.8359 13.75C18.8359 16.1625 16.8734 18.125 14.4609 18.125H6.96094C4.54844 18.125 2.58594 16.1625 2.58594 13.75V6.25C2.58594 3.8375 4.54844 1.875 6.96094 1.875H14.4609C16.8734 1.875 18.8359 3.8375 18.8359 6.25V13.75Z" fill="black"/>
<path d="M10.7109 5C7.94969 5 5.71094 7.23875 5.71094 10C5.71094 12.7613 7.94969 15 10.7109 15C13.4722 15 15.7109 12.7613 15.7109 10C15.7109 7.23875 13.4722 5 10.7109 5ZM10.7109 13.125C8.98844 13.125 7.58594 11.7225 7.58594 10C7.58594 8.27625 8.98844 6.875 10.7109 6.875C12.4334 6.875 13.8359 8.27625 13.8359 10C13.8359 11.7225 12.4334 13.125 10.7109 13.125Z" fill="black"/>
<path d="M16.0862 5.29099C16.4541 5.29099 16.7524 4.9927 16.7524 4.62474C16.7524 4.25678 16.4541 3.9585 16.0862 3.9585C15.7182 3.9585 15.4199 4.25678 15.4199 4.62474C15.4199 4.9927 15.7182 5.29099 16.0862 5.29099Z" fill="black"/>
</g>
<defs>
<clipPath id="clip0">
<rect width="20" height="20" fill="white" transform="translate(0.710938)"/>
</clipPath>
</defs>
</svg>
