<svg width="21" height="12" viewBox="0 0 21 12" fill="none" xmlns="http://www.w3.org/2000/svg">
<path d="M20.2899 0.854828C20.4299 0.389828 20.2899 0.0488281 19.6279 0.0488281H17.4349C16.8769 0.0488281 16.6219 0.343829 16.4819 0.667829C16.4819 0.667829 15.3669 3.38683 13.7869 5.14983C13.2769 5.66283 13.0439 5.82483 12.7659 5.82483C12.6269 5.82483 12.4249 5.66283 12.4249 5.19783V0.854828C12.4249 0.296828 12.2639 0.0488281 11.7989 0.0488281H8.35294C8.00494 0.0488281 7.79494 0.306828 7.79494 0.552828C7.79494 1.08083 8.58494 1.20283 8.66594 2.69083V5.91883C8.66594 6.62583 8.53894 6.75483 8.25894 6.75483C7.51594 6.75483 5.70794 4.02583 4.63494 0.901828C4.42594 0.294828 4.21494 0.0498285 3.65494 0.0498285H1.46294C0.835938 0.0498285 0.710938 0.344828 0.710938 0.668828C0.710938 1.25083 1.45394 4.13083 4.17194 7.93983C5.98394 10.5408 8.53494 11.9508 10.8589 11.9508C12.2519 11.9508 12.4239 11.6378 12.4239 11.0978V9.13183C12.4239 8.50583 12.5569 8.37983 12.9979 8.37983C13.3219 8.37983 13.8799 8.54383 15.1809 9.79683C16.6669 11.2828 16.9129 11.9498 17.7479 11.9498H19.9399C20.5659 11.9498 20.8789 11.6368 20.6989 11.0188C20.5019 10.4038 19.7919 9.50883 18.8499 8.44983C18.3379 7.84583 17.5729 7.19583 17.3399 6.87083C17.0149 6.45183 17.1089 6.26683 17.3399 5.89483C17.3409 5.89583 20.0119 2.13383 20.2899 0.854828Z" fill="black"/>
</svg>
