<svg width="1569" height="538" viewBox="0 0 1569 538" fill="none" xmlns="http://www.w3.org/2000/svg">
<path d="M1457.06 537.935C1518.36 537.935 1568.06 488.238 1568.06 426.935L1568.06 111C1568.06 49.6963 1518.36 -6.16278e-05 1457.06 -6.23588e-05L6.41481e-06 -7.97341e-05L222.111 474.031C240.383 513.027 279.561 537.935 322.625 537.935L1457.06 537.935Z" fill="#EDEDED"/>
</svg>
